# vtk DataFile Version 2.0
boolean, Created by Gmsh
ASCII
DATASET UNSTRUCTURED_GRID
POINTS 470 double
-1.4 0 1.05
-1.4 2.400307726328812e-16 0.9799999999999999
1.05 -2.571758278209442e-16 1.4
1.400000000000001 -3.429011037612592e-16 1.049999999999998
1.4 -3.429011037612589e-16 -1.05
1.05 -2.571758278209441e-16 -1.4
0 1.4 1.05
0 -1.4 1.05
-0.98 2.400307726328812e-16 0.9799999999999999
-0.6929646455628115 -0.6929646455628115 0.6929646455628232
-0.692964645562821 -0.6929646455628152 -0.6929646455628085
-0.6929646455628085 0.6929646455628209 -0.6929646455628152
-0.6929646455628123 0.6929646455628115 0.6929646455628223
0.9799999999999999 -2.400307726328812e-16 1.399999999999999
1.399999999999999 2.400307726328812e-16 0.9799999999999999
0.9799999999999999 -2.400307726328812e-16 -1.4
-2.400307726328812e-16 1.399999999999999 0.9799999999999999
-2.400307726328812e-16 -1.4 0.9799999999999999
0.98 0 0.98
0.6929646455628165 -0.6929646455628166 0.6929646455628166
-2.400307726328812e-16 -0.98 0.9799999999999999
-2.400307726328812e-16 0.98 0.9799999999999999
0.6929646455628165 0.6929646455628165 0.6929646455628165
0.9799999999999999 -0.9799999999999999 1.200153863164406e-16
0.6929646455628231 -0.6929646455628115 -0.6929646455628115
0.9799999999999999 -2.400307726328812e-16 -0.98
0.6929646455628168 0.6929646455628165 -0.6929646455628161
1.200153863164406e-16 0.9799999999999999 -0.9799999999999999
0.9799999999999999 0.9799999999999999 -1.200153863164406e-16
-1.4 -0.3793037494965103 0.9790958408745738
-1.4 -0.7073804258288846 0.7759593630816926
-1.4 -0.9399214559228151 0.4680252735653661
-1.4 -1.045520885109786 0.09688177743646827
-1.4 -1.009916925331461 -0.2873461395756855
-1.4 -0.8379180886442528 -0.6327663681982176
-1.4 -0.5527537710212259 -0.8927279925160936
-1.4 -0.1929369937074012 -1.032121754668097
-1.4 0.1929369937073954 -1.032121754668097
-1.4 0.5527537710212208 -0.8927279925160966
-1.4 0.8379180886442492 -0.6327663681982223
-1.4 1.009916925331459 -0.2873461395756909
-1.4 1.045520885109786 0.09688177743646477
-1.4 0.9399214559228165 0.468025273565363
-1.4 0.7073804258288857 0.7759593630816916
-1.4 0.3793037494965115 0.9790958408745732
-1.4 -0.3750297637177871 0.9054019418610613
-1.4 -0.6929646455628152 0.6929646455628177
-1.4 -0.90540194186106 0.3750297637177902
-1.4 -0.9799999999999999 3.32406338555618e-15
-1.4 -0.9054019418610626 -0.3750297637177838
-1.4 -0.6929646455628199 -0.692964645562813
-1.4 -0.3750297637177932 -0.9054019418610587
-1.4 -7.083334196765422e-15 -0.9799999999999999
-1.4 0.3750297637177818 -0.9054019418610635
-1.4 0.6929646455628123 -0.6929646455628206
-1.4 0.9054019418610594 -0.3750297637177917
-1.4 0.9799999999999999 -3.661682484699151e-15
-1.4 0.9054019418610622 0.375029763717785
-1.4 0.6929646455628179 0.6929646455628151
-1.4 0.3750297637177885 0.9054019418610607
0.9790958408745738 0.3793037494965103 1.4
0.7759593630816926 0.7073804258288846 1.4
0.4680252735653661 0.9399214559228151 1.4
0.09688177743646827 1.045520885109786 1.4
-0.2873461395756855 1.009916925331461 1.4
-0.6327663681982176 0.8379180886442528 1.4
-0.8927279925160936 0.5527537710212259 1.4
-1.032121754668097 0.1929369937074012 1.4
-1.032121754668097 -0.1929369937073954 1.4
-0.8927279925160966 -0.5527537710212208 1.4
-0.6327663681982223 -0.8379180886442492 1.4
-0.2873461395756909 -1.009916925331459 1.4
0.09688177743646477 -1.045520885109786 1.4
0.468025273565363 -0.9399214559228165 1.4
0.7759593630816916 -0.7073804258288857 1.4
0.9790958408745732 -0.3793037494965115 1.4
1.23743686707646 -3.03084619682423e-16 1.237436867076457
1.4 -0.3591211504919518 0.986677251825204
1.4 -0.6749269901708658 0.8043466652749274
1.4 -0.9093266739736601 0.5250000000000009
1.4 -1.034048140662818 0.1823305865502783
1.4 -1.034048140662819 -0.182330586550275
1.4 -0.9093266739736615 -0.5249999999999986
1.4 -0.6749269901708672 -0.8043466652749263
1.4 -0.3591211504919528 -0.9866772518252036
1.237436867076458 -3.030846196824226e-16 -1.237436867076458
0.9790958408745738 0.3793037494965103 -1.4
0.7759593630816926 0.7073804258288846 -1.4
0.4680252735653661 0.9399214559228151 -1.4
0.09688177743646827 1.045520885109786 -1.4
-0.2873461395756855 1.009916925331461 -1.4
-0.6327663681982176 0.8379180886442528 -1.4
-0.8927279925160936 0.5527537710212259 -1.4
-1.032121754668097 0.1929369937074012 -1.4
-1.032121754668097 -0.1929369937073954 -1.4
-0.8927279925160966 -0.5527537710212208 -1.4
-0.6327663681982223 -0.8379180886442492 -1.4
-0.2873461395756909 -1.009916925331459 -1.4
0.09688177743646477 -1.045520885109786 -1.4
0.468025273565363 -0.9399214559228165 -1.4
0.7759593630816916 -0.7073804258288857 -1.4
0.9790958408745732 -0.3793037494965115 -1.4
1.4 0.3591211504919513 -0.9866772518252043
1.4 0.6749269901708655 -0.8043466652749275
1.4 0.9093266739736603 -0.5250000000000005
1.4 1.034048140662818 -0.1823305865502778
1.4 1.034048140662819 0.1823305865502765
1.4 0.9093266739736605 0.525
1.4 0.6749269901708665 0.8043466652749268
1.4 0.359121150491952 0.9866772518252039
0.3793037494965103 1.4 0.9790958408745738
0.7073804258288846 1.4 0.7759593630816926
0.9399214559228151 1.4 0.4680252735653661
1.045520885109786 1.4 0.09688177743646827
1.009916925331461 1.4 -0.2873461395756855
0.8379180886442528 1.4 -0.6327663681982176
0.5527537710212259 1.4 -0.8927279925160936
0.1929369937074012 1.4 -1.032121754668097
-0.1929369937073954 1.4 -1.032121754668097
-0.5527537710212208 1.4 -0.8927279925160966
-0.8379180886442492 1.4 -0.6327663681982223
-1.009916925331459 1.4 -0.2873461395756909
-1.045520885109786 1.4 0.09688177743646477
-0.9399214559228165 1.4 0.468025273565363
-0.7073804258288857 1.4 0.7759593630816916
-0.3793037494965115 1.4 0.9790958408745732
0.3793037494965103 -1.4 0.9790958408745738
0.7073804258288846 -1.4 0.7759593630816926
0.9399214559228151 -1.4 0.4680252735653661
1.045520885109786 -1.4 0.09688177743646827
1.009916925331461 -1.4 -0.2873461395756855
0.8379180886442528 -1.4 -0.6327663681982176
0.5527537710212259 -1.4 -0.8927279925160936
0.1929369937074012 -1.4 -1.032121754668097
-0.1929369937073954 -1.4 -1.032121754668097
-0.5527537710212208 -1.4 -0.8927279925160966
-0.8379180886442492 -1.4 -0.6327663681982223
-1.009916925331459 -1.4 -0.2873461395756909
-1.045520885109786 -1.4 0.09688177743646477
-0.9399214559228165 -1.4 0.468025273565363
-0.7073804258288857 -1.4 0.7759593630816916
-0.3793037494965115 -1.4 0.9790958408745732
-1.19 2.400307726328812e-16 0.9799999999999999
-0.941719460125093 -0.2712276874172379 0.941719460125093
-0.8386852761562003 -0.5069585856446245 0.8386852761562003
-0.8633903557078635 -0.8633903557078635 0.463634655381421
-0.965940016251547 -0.965940016251547 0.1654082374126536
-0.9659400162515493 -0.9659400162515493 -0.1654082374126396
-0.8633903557078697 -0.8633903557078697 -0.4636346553814089
-0.8633903557078674 -0.4636346553814133 -0.8633903557078674
-0.9659400162515489 -0.1654082374126429 -0.9659400162515489
-0.9659400162515477 0.1654082374126499 -0.9659400162515477
-0.8633903557078647 0.4636346553814185 -0.8633903557078647
-0.8633903557078673 0.8633903557078673 -0.4636346553814137
-0.9659400162515489 0.9659400162515489 -0.1654082374126429
-0.9659400162515477 0.9659400162515477 0.1654082374126503
-0.8633903557078644 0.8633903557078644 0.4636346553814188
-0.8386852761561996 0.5069585856446254 0.8386852761561996
-0.9417194601250929 0.2712276874172389 0.9417194601250929
0.9054019418610613 0.3750297637177871 1.399999999999999
0.6929646455628177 0.6929646455628152 1.399999999999999
0.3750297637177902 0.90540194186106 1.399999999999999
3.32406338555618e-15 0.9799999999999999 1.399999999999999
-0.3750297637177838 0.9054019418610626 1.399999999999999
-0.692964645562813 0.6929646455628199 1.399999999999999
-0.9054019418610587 0.3750297637177932 1.399999999999999
-0.9799999999999999 7.083334196765422e-15 1.399999999999999
-0.9054019418610635 -0.3750297637177818 1.399999999999999
-0.6929646455628206 -0.6929646455628123 1.399999999999999
-0.3750297637177917 -0.9054019418610594 1.399999999999999
-3.661682484699151e-15 -0.9799999999999999 1.399999999999999
0.375029763717785 -0.9054019418610622 1.399999999999999
0.6929646455628151 -0.6929646455628179 1.399999999999999
0.9054019418610607 -0.3750297637177885 1.399999999999999
1.399999999999999 -0.3750297637177871 0.9054019418610613
1.399999999999999 -0.6929646455628152 0.6929646455628177
1.399999999999999 -0.90540194186106 0.3750297637177902
1.399999999999999 -0.9799999999999999 3.32406338555618e-15
1.399999999999999 -0.9054019418610626 -0.3750297637177838
1.399999999999999 -0.6929646455628199 -0.692964645562813
1.399999999999999 -0.3750297637177932 -0.9054019418610587
1.399999999999999 -7.083334196765422e-15 -0.9799999999999999
1.399999999999999 0.3750297637177818 -0.9054019418610635
1.399999999999999 0.6929646455628123 -0.6929646455628206
1.399999999999999 0.9054019418610594 -0.3750297637177917
1.399999999999999 0.9799999999999999 -3.661682484699151e-15
1.399999999999999 0.9054019418610622 0.375029763717785
1.399999999999999 0.6929646455628179 0.6929646455628151
1.399999999999999 0.3750297637177885 0.9054019418610607
0.9054019418610613 0.3750297637177871 -1.4
0.6929646455628177 0.6929646455628152 -1.4
0.3750297637177902 0.90540194186106 -1.4
3.32406338555618e-15 0.9799999999999999 -1.4
-0.3750297637177838 0.9054019418610626 -1.4
-0.692964645562813 0.6929646455628199 -1.4
-0.9054019418610587 0.3750297637177932 -1.4
-0.9799999999999999 7.083334196765422e-15 -1.4
-0.9054019418610635 -0.3750297637177818 -1.4
-0.6929646455628206 -0.6929646455628123 -1.4
-0.3750297637177917 -0.9054019418610594 -1.4
-3.661682484699151e-15 -0.9799999999999999 -1.4
0.375029763717785 -0.9054019418610622 -1.4
0.6929646455628151 -0.6929646455628179 -1.4
0.9054019418610607 -0.3750297637177885 -1.4
0.3750297637177871 1.399999999999999 0.9054019418610613
0.6929646455628152 1.399999999999999 0.6929646455628177
0.90540194186106 1.399999999999999 0.3750297637177902
0.9799999999999999 1.399999999999999 3.32406338555618e-15
0.9054019418610626 1.399999999999999 -0.3750297637177838
0.6929646455628199 1.399999999999999 -0.692964645562813
0.3750297637177932 1.399999999999999 -0.9054019418610587
7.083334196765422e-15 1.399999999999999 -0.9799999999999999
-0.3750297637177818 1.399999999999999 -0.9054019418610635
-0.6929646455628123 1.399999999999999 -0.6929646455628206
-0.9054019418610594 1.399999999999999 -0.3750297637177917
-0.9799999999999999 1.399999999999999 -3.661682484699151e-15
-0.9054019418610622 1.399999999999999 0.375029763717785
-0.6929646455628179 1.399999999999999 0.6929646455628151
-0.3750297637177885 1.399999999999999 0.9054019418610607
0.3750297637177871 -1.4 0.9054019418610613
0.6929646455628152 -1.4 0.6929646455628177
0.90540194186106 -1.4 0.3750297637177902
0.9799999999999999 -1.4 3.32406338555618e-15
0.9054019418610626 -1.4 -0.3750297637177838
0.6929646455628199 -1.4 -0.692964645562813
0.3750297637177932 -1.4 -0.9054019418610587
7.083334196765422e-15 -1.4 -0.9799999999999999
-0.3750297637177818 -1.4 -0.9054019418610635
-0.6929646455628123 -1.4 -0.6929646455628206
-0.9054019418610594 -1.4 -0.3750297637177917
-0.9799999999999999 -1.4 -3.661682484699151e-15
-0.9054019418610622 -1.4 0.375029763717785
-0.6929646455628179 -1.4 0.6929646455628151
-0.3750297637177885 -1.4 0.9054019418610607
0.9417194601250926 -0.2712276874172397 0.9417194601250926
0.8386852761561987 -0.506958585644627 0.8386852761561987
0.2712276874172387 -0.9417194601250929 0.9417194601250929
0.5069585856446264 -0.8386852761561991 0.8386852761561991
-0.5069585856446254 -0.8386852761561996 0.8386852761561996
-0.2712276874172389 -0.9417194601250929 0.9417194601250929
-0.5069585856446258 0.8386852761561995 0.8386852761561995
-0.2712276874172386 0.9417194601250929 0.9417194601250929
0.2712276874172395 0.9417194601250928 0.9417194601250928
0.5069585856446267 0.8386852761561988 0.8386852761561988
0.8386852761561984 0.5069585856446274 0.8386852761561984
0.9417194601250928 0.2712276874172395 0.9417194601250928
0.9799999999999999 -2.400307726328812e-16 1.19
-2.400307726328812e-16 -1.19 0.9799999999999999
0.8386852761561984 -0.8386852761561984 0.5069585856446274
0.9417194601250928 -0.9417194601250928 0.2712276874172395
0.941719460125093 -0.941719460125093 -0.2712276874172386
0.8386852761561998 -0.8386852761561998 -0.5069585856446249
0.4636346553814187 -0.8633903557078646 -0.8633903557078646
0.165408237412648 -0.9659400162515479 -0.9659400162515479
-0.1654082374126478 -0.9659400162515479 -0.9659400162515479
-0.4636346553814181 -0.8633903557078649 -0.8633903557078649
0.9799999999999999 -2.400307726328812e-16 -1.19
0.9417194601250928 0.2712276874172395 -0.9417194601250928
0.8386852761561988 0.5069585856446267 -0.8386852761561988
0.5069585856446274 0.8386852761561984 -0.8386852761561984
0.2712276874172402 0.9417194601250924 -0.9417194601250924
-0.2712276874172377 0.9417194601250932 -0.9417194601250932
-0.5069585856446238 0.8386852761562006 -0.8386852761562006
0.8386852761561995 -0.5069585856446258 -0.8386852761561995
0.9417194601250929 -0.2712276874172386 -0.9417194601250929
0.8386852761561984 0.8386852761561984 -0.5069585856446274
0.9417194601250928 0.9417194601250928 -0.2712276874172395
0.9417194601250928 0.9417194601250928 0.2712276874172395
0.8386852761561988 0.8386852761561988 0.5069585856446267
-2.400307726328812e-16 1.19 0.9799999999999999
1.19 2.400307726328812e-16 0.9799999999999999
-0.9517332536231219 0.8676194994924751 -1.184879832746078
-1.233218778913295 -0.7875783761647625 -0.9598915275869858
0.8800745567650576 1.196908781103996 -0.9248665548342273
0.8787594695776939 -1.19864740296936 -0.9238648158590832
1.213473275823526 -0.9751328815263828 0.7994363465768711
1.213473278264845 0.9751328828788283 0.799436341221486
-0.9429709879803954 0.8656973182753196 1.193261861017185
-0.9490828367103392 -0.8812693422430422 1.17690531287966
-1.224272928897296 -1.039982772209253 0.6943281854261673
-1.038523344089115 1.184582236462678 0.7620591767304178
0.8020510063290418 0.9341685938749696 1.243600909240675
0.7998624456573459 -0.938982042942398 1.241383418230955
1.213935531500526 -0.7092472038922439 1.042031155547457
1.214957561880182 0.7043196462328127 1.044180041353334
1.094952851066163 -0.6779661023190687 -1.184879832746077
1.08079019935989 0.6304318789427156 -1.223498341225017
-0.8261789793503999 -1.211372291904843 -0.9552515189648956
-0.6198094309468026 -1.187205255216785 1.126445716088906
-0.6321662960852837 1.160015382701764 1.147706445912496
-1.189148343907102 1.161627930650866 -0.5468516863965805
-1.182439373625853 -1.190668972892152 -0.496633189276804
1.21381285329002 -0.9109240210335882 -0.8714217033629243
1.227065655796713 0.9464429148127679 -0.8130533102846912
-0.9447471237960113 1.166210579271725 -0.8999476411846813
-0.6602473865200856 1.12480609743395 -1.166783883917156
-0.5362906218266009 -1.189675678963004 -1.166003493916186
-1.170026299365261 0.4532706031744092 -1.21987057472977
-1.184879832746077 -0.4652253826619026 -1.20088514241734
1.171422084407549 1.200326331827659 -0.4994867338412795
1.171577671791108 -1.196481971549366 -0.5082682861618162
1.196302814597878 -1.185900348740435 0.4743415843487792
1.196302808514112 1.185900356159851 0.4743415811429416
-1.159375024253599 0.5299980599255558 1.198937700471594
-1.160603785142616 -0.5288206702591802 1.198268564479293
-1.214340951777284 0.863566331787036 -0.9176760013428062
-0.9575992739966114 -0.9020878467842087 -1.154010895583483
0.4480823834827102 1.226256828340395 -1.165339593664014
0.5056586586533176 -1.218513330812313 -1.149797627220378
-1.209134387678809 -1.216811711939195 0.3462127817111851
-1.221697577130706 1.199973151200635 0.3605821216180585
0.748413784496226 0.9910600173105918 -1.232954520355218
0.7484137844961957 -0.9910600173105556 -1.232954520355265
-0.9317310673760113 -1.163408263681956 0.9169833314095168
0.9795376163572593 -1.229020682052254 0.769749453542483
0.9795376157084297 1.229020683471233 0.769749452102533
0.3361373269351131 1.220741161103258 1.208016024326328
0.3361373269340355 -1.220741161103493 1.20801602432639
-1.236098351263688 1.233874793282415 -0.110062984265683
-1.234878921339324 -1.235517505433829 -0.1052166498154921
-1.236877408697546 -0.000747943702286487 -1.237995846694916
1.189322739220309 0.2163992803844028 1.265378509941833
1.284147804756958 -0.2052353845413301 -1.171043488718527
1.151757141143806 -0.2048724895870724 -1.301530925808005
1.292801702720954 0.2067863484315249 -1.161207631538889
1.171487203005508 0.2127634642701996 -1.282516838667655
1.312645929389841 0.2082983721198658 1.138451778613611
1.203260099579104 0.4274988616610246 1.196624358785752
1.292618700773846 -0.2104575359220883 1.160751704708349
1.155107582043008 -0.2114531555929788 1.297503000727369
1.196154334797802 -0.4308869957617389 1.202518691841358
-1.193246638787686 0.8258886405613143 0.9780441771278394
-1.26333125071368 0.9717186753747247 0.7226734856753776
-0.2270633767183853 -1.239149062104276 1.214681779248926
-0.2270633767183771 1.23914906210432 1.214681779248884
1.020171624120801 0.9120554179665598 -1.09082756286068
0.995592671394018 -0.9447349604809701 -1.085712248761864
1.224042133314071 1.243740934518462 -0.131640965033989
1.224270199940427 -1.243377087215488 -0.1329507296909503
0.6882333319592727 1.201196362284604 1.070496230733425
0.6877867625486512 -1.201702830348844 1.070214780683963
-1.273092638339778 0.1987375007149267 1.184161534595111
-1.258319922157443 -0.1569700409755249 1.206022959871755
-0.3715307133732993 1.231915417606667 -1.186106796575805
-0.1236701595157824 -1.224118937420626 -1.244483233592778
1.221401257383693 -0.4151792942376507 -1.18249952308568
-0.017687811111524 1.267209155067779 -1.206800770073705
-1.198544507371029 -0.8044048522197855 0.9894058305750999
1.217615647013531 0.4169081730829126 -1.185790753617386
1.255191050860341 0.6677737459414976 -1.020330167186766
1.015912475618963 -0.9777260590781459 1.036568181684769
1.018886033883862 0.9717169435454857 1.039296604239152
-0.9102316700762695 1.086457392481836 1.026444660520836
-1.028960143563336 -1.242602204483822 0.6779976285873474
1.028003718297744 -0.6952086805825671 1.233853008104555
1.024188138161161 0.6609580835616951 1.255656429691031
1.290152390919696 -0.609850344563198 -1.012960692939435
-1.10077893478018 -1.086556571885194 -0.8186455599569984
-1.009242753105441 0.6963289507842478 0.6895839269441453
-1.009876463407237 -0.6942131874088402 0.6917138501054163
-1.018938168303887 -0.6926602094726164 -0.6932689479656153
-1.018938168303881 0.6932689479656404 -0.6926602094725911
-1.112727866505887 -0.4624879754407563 0.8640051345754319
-1.112563536316788 0.4629024628448456 0.8637831382309892
-1.127935700980897 -0.8480999107721203 0.4910463739284927
-1.127822201873781 0.8484513838014331 0.4904388334190441
-1.129762748431846 0.4913077266722773 -0.84794853482515
-1.129762748431849 -0.8479485348251715 -0.4913077266722401
-1.129763487318527 0.8480379399228152 -0.4911533899419483
-1.129763487318528 -0.4911533899419824 -0.8480379399227954
-1.171206585933556 0.1887931874132198 0.9616429339346058
-1.171230817071422 -0.1887182383734883 0.9616576451654751
-1.170326293649271 1.185606890642743e-15 -0.9799999999999999
-1.170326293649275 -0.9799999999999999 1.006977848317863e-14
-1.170326293649285 0.9799999999999999 1.560806623137584e-15
-0.4695775962141518 0.8601725879925137 1.119212031209158
-0.6925665008348327 0.693362561666979 1.000409567908346
-0.8601725879925632 -0.4695775962140612 1.119212031209153
-0.6933625616669579 -0.692566500834854 1.00040956790839
0.8640940005311185 0.462321920577131 1.113127474714052
0.694314142833481 0.691612515113346 0.9993961804032057
0.4695775962138969 -0.8601725879926528 1.119212031209141
0.692566500834766 -0.6933625616670458 1.000409567908406
0.8641018411740439 -0.4623072658737123 1.111094076925006
0.4696438451671718 0.8601364186549675 1.118409299333845
-0.4683881955070828 -0.8608208282271164 1.120762700490784
-0.8608208282271188 0.4683881955070781 1.120762700490772
-0.9664106730529672 -0.1626358232656959 1.171571523247135
-0.1626358232657054 0.9664106730529656 1.171571523247157
0.1626358232656396 -0.9664106730529767 1.171571523247134
0.1636264373200907 0.9662434418975034 1.168425428856972
-0.1633905774020569 -0.9662833534818978 1.168815031409647
-0.9662833534818982 0.1633905774020542 1.168815031409646
0.961664544854007 -0.1886830760050706 1.17096396815675
0.9616638268070584 0.188686735651459 1.171299687895724
0.6917138501054502 -1.009876463407192 -0.6942131874088064
-0.6963289507841756 -1.009242753105448 0.6895839269442182
-0.6932689479656429 -1.018938168303884 -0.6926602094725888
0.8601441803204813 -1.119044528117994 -0.4696296296666205
0.4623444949014914 -1.113187283827823 0.8640819220619562
0.6916154273138447 -0.9994061214308183 0.6943112419524025
0.8601365403996456 -1.11840990162849 0.469643622195946
-0.4629024628448302 -1.11256353631679 0.8637831382309974
0.9664090116034584 -1.171543788806868 -0.1626456955828414
0.9662437268178555 -1.168420946031972 0.1636247548054422
0.491046373928521 -1.127935700980889 -0.848099910772104
-0.8484513838013953 -1.127822201873781 0.4904388334191097
-0.4913077266722773 -1.129762748431847 -0.84794853482515
-0.8480379399228131 -1.129763487318529 -0.4911533899419521
0.1886920861426462 -1.171306666813285 0.9616627769790905
-0.1887931874132189 -1.171206585933557 0.961642933934606
-0.9799999999999999 -1.170326293649274 5.912880879668198e-15
2.296052514581747e-15 -1.17032629364927 -0.9799999999999999
-0.6942131874088076 0.6917138501054489 -1.009876463407185
0.6895839269442133 -0.6963289507841806 -1.009242753105478
-0.6926602094725967 -0.693268947965635 -1.018938168303879
-0.4696296296666197 0.8601441803204818 -1.119044528117993
0.8640819220619501 0.4623444949015029 -1.113187283827803
0.6943112419523855 0.6916154273138618 -0.9994061214307739
0.4696436221959453 0.860136540399646 -1.118409901628487
0.8637831382309851 -0.4629024628448533 -1.112563536316821
-0.1626456955828414 0.9664090116034584 -1.171543788806868
0.163624754805442 0.9662437268178556 -1.168420946031972
-0.848099910772109 0.4910463739285123 -1.127935700980888
0.4904388334191074 -0.8484513838013965 -1.127822201873788
-0.8479485348251659 -0.4913077266722499 -1.129762748431846
-0.4911533899419573 -0.84803793992281 -1.129763487318527
0.961662776979089 0.1886920861426539 -1.171306666813283
0.9616429339346023 -0.1887931874132377 -1.171206585933565
-0.9799999999999999 6.64812677111236e-15 -1.170326293649275
-1.050437930780784e-15 -0.9799999999999999 -1.170326293649273
-0.6942131874088173 1.00987646340723 -0.6917138501054392
-0.6963289507842565 1.009242753105397 0.6895839269441366
0.8601725879925131 1.119212031209158 -0.4695775962141529
0.6933625616669796 1.000409567908346 -0.6925665008348322
-0.4696296296665211 1.119044528117986 -0.8601441803205356
0.4623444949015093 1.113187283827837 0.8640819220619467
0.6916154273138664 0.9994061214308565 0.6943112419523809
0.8601365403996479 1.1184099016285 0.4696436221959421
-0.4629024628448663 1.112563536316819 0.8637831382309781
0.4683881955070804 1.120762700490771 -0.8608208282271176
-0.1626456955828339 1.171543788806857 -0.9664090116034597
0.9664106730529656 1.171571523247158 -0.1626358232657058
0.9662434490350638 1.168425528576245 0.1636263951715121
0.163388936961387 1.168810448815698 -0.9662836308655071
-0.848099910772123 1.127935700980937 -0.4910463739284884
-0.8484513838014345 1.127822201873713 0.4904388334190419
-0.1887931874132402 1.171206585933583 0.9616429339346018
0.1886920861426551 1.17130666681329 0.9616627769790888
-0.9799999999999999 1.170326293649288 1.560806623137584e-15
1.119212031209162 -0.8601725879925123 -0.4695775962141545
1.00040956790839 -0.6933625616669751 -0.6925665008348367
1.119212031209152 0.4695775962140559 -0.8601725879925661
1.00040956790839 0.6925665008348327 -0.693362561666979
1.119212031209139 0.860172587992645 0.4695775962139114
1.000409567908362 0.6933625616670889 0.6925665008347228
1.113127474714063 -0.4623219205771396 0.864094000531114
0.999396180403207 -0.6916125151133445 0.6943141428334825
1.111094076924988 0.4623072658737845 0.8641018411740052
1.118409299333841 -0.8601364186549663 0.4696438451671738
1.120762700490776 -0.4683881955070781 -0.8608208282271188
1.120762700490784 0.8608208282271052 -0.4683881955071034
1.171571523247135 0.1626358232656937 -0.9664106730529676
1.171571523247137 -0.966410673052966 -0.1626358232657028
1.171571523247133 0.9664106730529735 0.1626358232656585
1.168425428856983 -0.9662434418975031 0.163626437320093
1.168815031409648 0.9662833534818948 -0.1633905774020749
1.168815031409646 -0.1633905774020551 -0.9662833534818981
1.171299687895712 -0.1886867356514623 0.9616638268070578
1.170963968156761 0.1886830760051056 0.9616645448540001

CELLS 1268 4731
1 0
1 1
1 2
1 3
1 4
1 5
1 6
1 7
1 8
1 9
1 10
1 11
1 12
1 13
1 14
1 15
1 16
1 17
1 18
1 19
1 20
1 21
1 22
1 23
1 24
1 25
1 26
1 27
1 28
2 0 29
2 29 30
2 30 31
2 31 32
2 32 33
2 33 34
2 34 35
2 35 36
2 36 37
2 37 38
2 38 39
2 39 40
2 40 41
2 41 42
2 42 43
2 43 44
2 44 0
2 1 45
2 45 46
2 46 47
2 47 48
2 48 49
2 49 50
2 50 51
2 51 52
2 52 53
2 53 54
2 54 55
2 55 56
2 56 57
2 57 58
2 58 59
2 59 1
2 2 60
2 60 61
2 61 62
2 62 63
2 63 64
2 64 65
2 65 66
2 66 67
2 67 68
2 68 69
2 69 70
2 70 71
2 71 72
2 72 73
2 73 74
2 74 75
2 75 2
2 3 76
2 76 2
2 3 77
2 77 78
2 78 79
2 79 80
2 80 81
2 81 82
2 82 83
2 83 84
2 84 4
2 5 85
2 85 4
2 5 86
2 86 87
2 87 88
2 88 89
2 89 90
2 90 91
2 91 92
2 92 93
2 93 94
2 94 95
2 95 96
2 96 97
2 97 98
2 98 99
2 99 100
2 100 101
2 101 5
2 4 102
2 102 103
2 103 104
2 104 105
2 105 106
2 106 107
2 107 108
2 108 109
2 109 3
2 6 110
2 110 111
2 111 112
2 112 113
2 113 114
2 114 115
2 115 116
2 116 117
2 117 118
2 118 119
2 119 120
2 120 121
2 121 122
2 122 123
2 123 124
2 124 125
2 125 6
2 7 126
2 126 127
2 127 128
2 128 129
2 129 130
2 130 131
2 131 132
2 132 133
2 133 134
2 134 135
2 135 136
2 136 137
2 137 138
2 138 139
2 139 140
2 140 141
2 141 7
2 1 142
2 142 8
2 8 143
2 143 144
2 144 9
2 9 145
2 145 146
2 146 147
2 147 148
2 148 10
2 10 149
2 149 150
2 150 151
2 151 152
2 152 11
2 11 153
2 153 154
2 154 155
2 155 156
2 156 12
2 12 157
2 157 158
2 158 8
2 13 159
2 159 160
2 160 161
2 161 162
2 162 163
2 163 164
2 164 165
2 165 166
2 166 167
2 167 168
2 168 169
2 169 170
2 170 171
2 171 172
2 172 173
2 173 13
2 14 174
2 174 175
2 175 176
2 176 177
2 177 178
2 178 179
2 179 180
2 180 181
2 181 182
2 182 183
2 183 184
2 184 185
2 185 186
2 186 187
2 187 188
2 188 14
2 15 189
2 189 190
2 190 191
2 191 192
2 192 193
2 193 194
2 194 195
2 195 196
2 196 197
2 197 198
2 198 199
2 199 200
2 200 201
2 201 202
2 202 203
2 203 15
2 16 204
2 204 205
2 205 206
2 206 207
2 207 208
2 208 209
2 209 210
2 210 211
2 211 212
2 212 213
2 213 214
2 214 215
2 215 216
2 216 217
2 217 218
2 218 16
2 17 219
2 219 220
2 220 221
2 221 222
2 222 223
2 223 224
2 224 225
2 225 226
2 226 227
2 227 228
2 228 229
2 229 230
2 230 231
2 231 232
2 232 233
2 233 17
2 18 234
2 234 235
2 235 19
2 20 236
2 236 237
2 237 19
2 9 238
2 238 239
2 239 20
2 12 240
2 240 241
2 241 21
2 21 242
2 242 243
2 243 22
2 22 244
2 244 245
2 245 18
2 18 246
2 246 13
2 17 247
2 247 20
2 19 248
2 248 249
2 249 23
2 23 250
2 250 251
2 251 24
2 24 252
2 252 253
2 253 254
2 254 255
2 255 10
2 15 256
2 256 25
2 25 257
2 257 258
2 258 26
2 26 259
2 259 260
2 260 27
2 27 261
2 261 262
2 262 11
2 24 263
2 263 264
2 264 25
2 26 265
2 265 266
2 266 28
2 28 267
2 267 268
2 268 22
2 21 269
2 269 16
2 18 270
2 270 14
3 31 30 46
3 32 31 47
3 47 31 46
3 33 32 48
3 48 32 47
3 34 33 49
3 49 33 48
3 35 34 50
3 50 34 49
3 36 35 51
3 51 35 50
3 36 52 37
3 36 51 52
3 37 53 38
3 37 52 53
3 38 54 39
3 53 54 38
3 39 55 40
3 54 55 39
3 40 56 41
3 55 56 40
3 41 57 42
3 56 57 41
3 42 58 43
3 57 58 42
3 29 0 1
3 44 1 0
3 45 29 1
3 59 1 44
3 30 29 45
3 46 30 45
3 43 59 44
3 58 59 43
3 113 302 106
3 80 301 129
3 273 299 293
3 292 300 274
3 106 337 113
3 129 338 80
3 98 308 133
3 274 300 131
3 115 299 273
3 133 344 98
3 297 305 271
3 341 342 67
3 67 342 68
3 63 316 6
3 7 317 72
3 314 350 340
3 339 351 315
3 298 306 272
3 6 334 63
3 72 333 7
3 287 306 296
3 119 295 294
3 285 356 292
3 281 339 62
3 73 340 282
3 62 339 316
3 317 340 73
3 292 336 285
3 281 355 351
3 38 305 297
3 306 357 272
3 119 294 120
3 296 344 134
3 287 357 306
3 141 288 140
3 124 289 125
3 5 323 101
3 61 355 281
3 64 334 289
3 288 333 71
3 303 331 44
3 44 331 43
3 310 332 280
3 70 288 71
3 64 289 65
3 135 296 134
3 35 298 272
3 294 305 290
3 293 349 335
3 89 346 307
3 340 350 282
3 281 351 339
3 2 321 60
3 290 305 39
3 291 319 33
3 141 333 288
3 289 334 125
3 273 307 116
3 132 308 274
3 75 329 2
3 285 336 100
3 296 306 96
3 290 318 121
3 77 283 78
3 108 284 109
3 123 310 280
3 31 309 279
3 278 347 313
3 86 325 5
3 124 352 289
3 81 338 300
3 299 337 105
3 68 304 69
3 66 303 67
3 100 336 312
3 104 299 105
3 81 300 82
3 92 297 271
3 36 320 298
3 273 311 307
3 308 312 274
3 34 291 33
3 120 290 121
3 137 319 291
3 40 318 290
3 275 301 79
3 107 302 276
3 91 295 90
3 313 347 279
3 77 330 283
3 30 347 29
3 120 294 290
3 292 356 83
3 350 354 282
3 297 320 37
3 29 347 304
3 309 353 279
3 298 320 94
3 68 342 304
3 303 341 67
3 284 327 109
3 87 335 286
3 302 315 276
3 275 314 301
3 335 349 286
3 288 313 140
3 95 306 298
3 122 318 310
3 295 343 90
3 99 308 98
3 89 307 88
3 97 344 296
3 307 346 117
3 32 319 309
3 310 318 41
3 282 354 74
3 309 319 138
3 6 316 110
3 126 317 7
3 311 335 87
3 109 326 3
3 4 324 102
3 38 297 37
3 314 340 127
3 111 339 315
3 34 357 291
3 93 320 297
3 103 349 293
3 112 302 113
3 129 301 128
3 84 322 4
3 3 328 77
3 351 355 284
3 294 295 271
3 280 352 124
3 136 357 287
3 291 357 136
3 331 352 280
3 0 342 341
3 131 300 130
3 114 299 115
3 134 344 133
3 87 286 86
3 101 285 100
3 42 332 310
3 80 338 81
3 105 337 106
3 132 274 131
3 35 272 34
3 31 279 30
3 123 280 124
3 65 289 277
3 36 298 35
3 278 288 70
3 73 282 74
3 65 277 66
3 69 278 70
3 136 287 135
3 61 281 62
3 40 290 39
3 287 296 135
3 137 291 136
3 92 271 91
3 115 273 116
3 280 332 331
3 272 357 34
3 78 275 79
3 107 276 108
3 97 296 96
3 103 293 104
3 82 292 83
3 271 295 91
3 300 338 130
3 114 337 299
3 78 283 275
3 276 284 108
3 278 313 288
3 90 346 89
3 63 334 64
3 71 333 72
3 343 346 90
3 119 343 295
3 118 343 119
3 293 299 104
3 82 300 292
3 95 298 94
3 271 305 294
3 79 301 80
3 106 302 107
3 39 305 38
3 116 307 117
3 133 308 132
3 122 310 123
3 32 309 31
3 293 335 273
3 112 315 302
3 301 314 128
3 69 304 278
3 277 303 66
3 283 354 350
3 139 309 138
3 42 310 41
3 274 336 292
3 93 297 92
3 37 320 36
3 128 314 127
3 111 315 112
3 96 306 95
3 44 341 303
3 304 342 29
3 101 345 285
3 140 353 139
3 88 311 87
3 100 312 99
3 275 350 314
3 315 351 276
3 138 319 137
3 41 318 40
3 121 318 122
3 33 319 32
3 5 325 85
3 286 348 86
3 7 333 141
3 125 334 6
3 84 345 322
3 126 340 317
3 316 339 110
3 3 326 76
3 85 324 4
3 2 329 76
3 76 321 2
3 307 311 88
3 99 312 308
3 72 317 73
3 62 316 63
3 4 322 85
3 76 328 3
3 127 340 126
3 110 339 111
3 29 342 0
3 0 341 44
3 118 346 343
3 113 337 114
3 130 338 129
3 85 323 5
3 279 347 30
3 94 320 93
3 139 353 309
3 60 355 61
3 277 352 331
3 117 346 118
3 74 354 75
3 43 332 42
3 98 344 97
3 273 335 311
3 313 353 140
3 289 352 277
3 283 350 275
3 276 351 284
3 102 349 103
3 83 356 84
3 84 356 345
3 277 331 303
3 312 336 274
3 304 347 278
3 326 327 321
3 328 330 77
3 85 325 324
3 76 326 321
3 329 330 328
3 322 323 85
3 109 327 326
3 75 330 329
3 322 345 323
3 321 327 60
3 76 329 328
3 331 332 43
3 279 353 313
3 75 354 330
3 86 348 325
3 324 348 102
3 325 348 324
3 330 354 283
3 284 355 327
3 348 349 102
3 327 355 60
3 345 356 285
3 286 349 348
3 323 345 101
3 51 150 372
3 55 154 374
3 147 49 373
3 47 146 373
3 151 53 372
3 155 57 374
3 146 47 364
3 57 155 365
3 154 55 368
3 150 51 369
3 49 147 367
3 53 151 366
3 359 46 362
3 58 358 363
3 59 363 370
3 362 45 371
3 46 359 364
3 52 51 372
3 49 48 373
3 56 55 374
3 48 47 373
3 53 52 372
3 57 56 374
3 145 146 364
3 358 58 365
3 363 158 370
3 155 156 365
3 143 362 371
3 147 148 367
3 151 152 366
3 149 150 369
3 153 154 368
3 59 58 363
3 46 45 362
3 156 12 358
3 12 157 358
3 9 145 359
3 158 8 370
3 8 143 371
3 148 10 360
3 152 11 361
3 10 149 360
3 11 153 361
3 358 157 363
3 54 361 368
3 50 360 369
3 361 54 366
3 360 50 367
3 144 9 359
3 144 359 362
3 157 158 363
3 143 144 362
3 58 57 365
3 55 54 368
3 51 50 369
3 50 49 367
3 54 53 366
3 47 46 364
3 359 145 364
3 142 8 371
3 8 142 370
3 152 361 366
3 148 360 367
3 360 149 369
3 361 153 368
3 156 358 365
3 154 155 374
3 146 147 373
3 150 151 372
3 1 59 370
3 142 1 370
3 45 1 371
3 1 142 371
3 62 160 61
3 63 161 62
3 161 160 62
3 64 162 63
3 162 161 63
3 65 163 64
3 163 162 64
3 66 164 65
3 164 163 65
3 67 165 66
3 165 164 66
3 67 68 166
3 67 166 165
3 68 69 167
3 68 167 166
3 69 70 168
3 167 69 168
3 70 71 169
3 168 70 169
3 71 72 170
3 169 71 170
3 72 73 171
3 170 72 171
3 73 74 172
3 171 73 172
3 60 13 2
3 75 2 13
3 159 13 60
3 173 75 13
3 61 159 60
3 160 159 61
3 74 75 173
3 172 74 173
3 78 174 77
3 79 175 78
3 175 174 78
3 80 176 79
3 176 175 79
3 81 177 80
3 177 176 80
3 82 178 81
3 178 177 81
3 83 179 82
3 179 178 82
3 84 180 83
3 180 179 83
3 102 103 182
3 103 104 183
3 182 103 183
3 104 105 184
3 183 104 184
3 105 106 185
3 184 105 185
3 106 107 186
3 185 106 186
3 107 108 187
3 186 107 187
3 108 109 188
3 187 108 188
3 14 3 77
3 14 109 3
3 4 181 84
3 4 102 181
3 174 14 77
3 188 109 14
3 84 181 180
3 102 182 181
3 88 87 190
3 89 88 191
3 191 88 190
3 90 89 192
3 192 89 191
3 91 90 193
3 193 90 192
3 92 91 194
3 194 91 193
3 93 92 195
3 195 92 194
3 94 93 196
3 93 195 196
3 94 197 95
3 94 196 197
3 95 198 96
3 197 198 95
3 96 199 97
3 198 199 96
3 97 200 98
3 199 200 97
3 98 201 99
3 200 201 98
3 99 202 100
3 201 202 99
3 86 5 15
3 101 15 5
3 189 86 15
3 203 15 101
3 87 86 189
3 190 87 189
3 100 203 101
3 202 203 100
3 110 16 6
3 112 205 111
3 113 206 112
3 206 205 112
3 114 207 113
3 207 206 113
3 115 208 114
3 208 207 114
3 116 209 115
3 209 208 115
3 117 210 116
3 210 209 116
3 118 211 117
3 117 211 210
3 118 119 212
3 118 212 211
3 119 120 213
3 212 119 213
3 120 121 214
3 213 120 214
3 121 122 215
3 214 121 215
3 122 123 216
3 215 122 216
3 123 124 217
3 216 123 217
3 125 6 16
3 204 16 110
3 218 125 16
3 111 204 110
3 205 204 111
3 124 125 218
3 217 124 218
3 126 7 17
3 128 127 220
3 129 128 221
3 221 128 220
3 130 129 222
3 222 129 221
3 131 130 223
3 223 130 222
3 132 131 224
3 224 131 223
3 133 132 225
3 225 132 224
3 133 226 134
3 133 225 226
3 134 227 135
3 134 226 227
3 135 228 136
3 227 228 135
3 136 229 137
3 228 229 136
3 137 230 138
3 229 230 137
3 138 231 139
3 230 231 138
3 139 232 140
3 231 232 139
3 141 17 7
3 219 126 17
3 233 17 141
3 127 126 219
3 220 127 219
3 140 233 141
3 232 233 140
3 159 379 394
3 383 173 393
3 381 172 382
3 377 168 378
3 375 164 376
3 379 160 380
3 380 160 384
3 376 164 386
3 378 168 385
3 382 172 383
3 19 237 382
3 9 144 378
3 12 240 376
3 22 244 380
3 235 19 382
3 238 9 378
3 157 12 376
3 243 22 380
3 234 383 393
3 379 245 394
3 171 172 381
3 167 168 377
3 163 164 375
3 159 160 379
3 160 161 384
3 164 165 386
3 168 169 385
3 172 173 383
3 245 18 394
3 18 234 393
3 239 385 391
3 158 386 392
3 242 384 390
3 375 241 388
3 377 143 387
3 381 236 389
3 389 20 391
3 387 8 392
3 388 21 390
3 237 381 382
3 144 377 378
3 240 375 376
3 244 379 380
3 235 382 383
3 157 376 386
3 243 380 384
3 238 378 385
3 234 235 383
3 239 238 385
3 158 157 386
3 242 243 384
3 244 245 379
3 240 241 375
3 144 143 377
3 237 236 381
3 21 242 390
3 143 8 387
3 236 20 389
3 20 239 391
3 8 158 392
3 241 21 388
3 162 163 388
3 165 166 392
3 169 170 391
3 166 167 387
3 170 171 389
3 161 162 390
3 385 169 391
3 386 165 392
3 384 161 390
3 163 375 388
3 167 377 387
3 171 381 389
3 246 18 393
3 18 246 394
3 170 389 391
3 166 387 392
3 162 388 390
3 13 159 394
3 246 13 394
3 173 13 393
3 13 246 393
3 229 147 411
3 225 253 412
3 254 227 412
3 146 231 411
3 253 225 405
3 231 146 406
3 147 229 408
3 227 254 407
3 395 224 398
3 232 396 402
3 399 219 409
3 233 402 410
3 220 399 400
3 220 400 401
3 224 395 405
3 230 229 411
3 226 225 412
3 227 226 412
3 231 230 411
3 252 253 405
3 237 19 400
3 19 248 400
3 396 232 406
3 236 399 409
3 402 239 410
3 146 145 406
3 254 255 407
3 148 147 408
3 220 219 399
3 221 220 401
3 233 232 402
3 224 223 398
3 145 9 396
3 9 238 396
3 24 252 395
3 239 20 410
3 20 236 409
3 255 10 397
3 10 148 397
3 396 238 402
3 228 397 408
3 397 228 407
3 251 24 395
3 401 249 404
3 23 403 404
3 250 398 403
3 251 395 398
3 399 237 400
3 400 248 401
3 248 249 401
3 236 237 399
3 238 239 402
3 250 251 398
3 232 231 406
3 229 228 408
3 228 227 407
3 225 224 405
3 249 23 404
3 23 250 403
3 223 222 403
3 222 221 404
3 221 401 404
3 398 223 403
3 395 252 405
3 247 20 409
3 20 247 410
3 255 397 407
3 397 148 408
3 145 396 406
3 403 222 404
3 147 146 411
3 253 254 412
3 17 233 410
3 247 17 410
3 219 17 409
3 17 247 409
3 195 151 429
3 199 254 430
3 150 197 429
3 253 201 430
3 151 195 423
3 201 253 424
3 254 199 426
3 197 150 425
3 413 194 416
3 202 414 420
3 417 189 427
3 203 420 428
3 190 417 418
3 190 418 419
3 194 413 423
3 200 199 430
3 196 195 429
3 197 196 429
3 201 200 430
3 152 151 423
3 258 26 418
3 26 259 418
3 414 202 424
3 257 417 427
3 420 264 428
3 253 252 424
3 150 149 425
3 255 254 426
3 190 189 417
3 191 190 419
3 203 202 420
3 194 193 416
3 252 24 414
3 24 263 414
3 11 152 413
3 264 25 428
3 25 257 427
3 149 10 415
3 10 255 415
3 414 263 420
3 198 415 426
3 415 198 425
3 262 11 413
3 419 260 422
3 27 421 422
3 261 416 421
3 262 413 416
3 417 258 418
3 418 259 419
3 259 260 419
3 257 258 417
3 263 264 420
3 261 262 416
3 202 201 424
3 199 198 426
3 198 197 425
3 195 194 423
3 260 27 422
3 27 261 421
3 193 192 421
3 192 191 422
3 191 419 422
3 416 193 421
3 413 152 423
3 256 25 427
3 25 256 428
3 149 415 425
3 415 255 426
3 252 414 424
3 421 192 422
3 151 150 429
3 254 253 430
3 15 203 428
3 256 15 428
3 189 15 427
3 15 256 427
3 154 214 449
3 216 155 449
3 214 154 445
3 155 216 446
3 213 431 435
3 432 217 439
3 204 436 448
3 439 218 447
3 436 205 437
3 433 209 434
3 437 205 438
3 434 209 440
3 431 213 445
3 214 215 449
3 215 216 449
3 154 153 445
3 26 265 434
3 22 243 437
3 259 26 434
3 268 22 437
3 217 432 446
3 436 242 448
3 241 439 447
3 156 155 446
3 208 209 433
3 204 205 436
3 205 206 438
3 209 210 440
3 217 218 439
3 212 213 435
3 12 156 432
3 240 12 432
3 153 11 431
3 21 241 447
3 242 21 448
3 240 432 439
3 11 262 431
3 260 440 444
3 267 438 443
3 433 266 442
3 441 27 444
3 442 28 443
3 435 261 441
3 431 262 435
3 243 436 437
3 265 433 434
3 259 434 440
3 268 437 438
3 260 259 440
3 267 268 438
3 243 242 436
3 265 266 433
3 241 240 439
3 262 261 435
3 216 217 446
3 213 214 445
3 28 267 443
3 261 27 441
3 27 260 444
3 266 28 442
3 207 208 442
3 210 211 444
3 211 212 441
3 206 207 443
3 440 210 444
3 438 206 443
3 208 433 442
3 212 435 441
3 153 431 445
3 21 269 448
3 269 21 447
3 432 156 446
3 211 441 444
3 207 442 443
3 155 154 449
3 218 16 447
3 16 269 447
3 16 204 448
3 269 16 448
3 458 188 469
3 174 456 468
3 454 187 455
3 452 183 453
3 450 179 451
3 456 175 457
3 457 175 459
3 451 179 460
3 453 183 461
3 455 187 458
3 22 268 455
3 26 258 453
3 24 251 451
3 19 235 457
3 244 22 455
3 265 26 453
3 263 24 451
3 248 19 457
3 245 458 469
3 456 234 468
3 186 187 454
3 182 183 452
3 178 179 450
3 174 175 456
3 175 176 459
3 179 180 460
3 183 184 461
3 187 188 458
3 18 245 469
3 234 18 468
3 266 461 466
3 264 460 467
3 249 459 465
3 450 250 463
3 452 257 462
3 454 267 464
3 462 25 467
3 464 28 466
3 463 23 465
3 268 454 455
3 258 452 453
3 251 450 451
3 235 456 457
3 244 455 458
3 263 451 460
3 265 453 461
3 248 457 459
3 245 244 458
3 266 265 461
3 264 263 460
3 249 248 459
3 235 234 456
3 251 250 450
3 258 257 452
3 268 267 454
3 250 23 463
3 257 25 462
3 267 28 464
3 28 266 466
3 25 264 467
3 23 249 465
3 176 177 465
3 180 181 467
3 184 185 466
3 185 186 464
3 181 182 462
3 177 178 463
3 461 184 466
3 460 180 467
3 459 176 465
3 178 450 463
3 182 452 462
3 186 454 464
3 270 18 469
3 18 270 468
3 185 464 466
3 181 462 467
3 177 463 465
3 188 14 469
3 14 270 469
3 14 174 468
3 270 14 468

CELL_TYPES 1268
1
1
1
1
1
1
1
1
1
1
1
1
1
1
1
1
1
1
1
1
1
1
1
1
1
1
1
1
1
3
3
3
3
3
3
3
3
3
3
3
3
3
3
3
3
3
3
3
3
3
3
3
3
3
3
3
3
3
3
3
3
3
3
3
3
3
3
3
3
3
3
3
3
3
3
3
3
3
3
3
3
3
3
3
3
3
3
3
3
3
3
3
3
3
3
3
3
3
3
3
3
3
3
3
3
3
3
3
3
3
3
3
3
3
3
3
3
3
3
3
3
3
3
3
3
3
3
3
3
3
3
3
3
3
3
3
3
3
3
3
3
3
3
3
3
3
3
3
3
3
3
3
3
3
3
3
3
3
3
3
3
3
3
3
3
3
3
3
3
3
3
3
3
3
3
3
3
3
3
3
3
3
3
3
3
3
3
3
3
3
3
3
3
3
3
3
3
3
3
3
3
3
3
3
3
3
3
3
3
3
3
3
3
3
3
3
3
3
3
3
3
3
3
3
3
3
3
3
3
3
3
3
3
3
3
3
3
3
3
3
3
3
3
3
3
3
3
3
3
3
3
3
3
3
3
3
3
3
3
3
3
3
3
3
3
3
3
3
3
3
3
3
3
3
3
3
3
3
3
3
3
3
3
3
3
3
3
3
3
3
3
3
3
3
3
3
3
3
3
3
3
3
3
3
3
3
3
3
3
3
3
3
5
5
5
5
5
5
5
5
5
5
5
5
5
5
5
5
5
5
5
5
5
5
5
5
5
5
5
5
5
5
5
5
5
5
5
5
5
5
5
5
5
5
5
5
5
5
5
5
5
5
5
5
5
5
5
5
5
5
5
5
5
5
5
5
5
5
5
5
5
5
5
5
5
5
5
5
5
5
5
5
5
5
5
5
5
5
5
5
5
5
5
5
5
5
5
5
5
5
5
5
5
5
5
5
5
5
5
5
5
5
5
5
5
5
5
5
5
5
5
5
5
5
5
5
5
5
5
5
5
5
5
5
5
5
5
5
5
5
5
5
5
5
5
5
5
5
5
5
5
5
5
5
5
5
5
5
5
5
5
5
5
5
5
5
5
5
5
5
5
5
5
5
5
5
5
5
5
5
5
5
5
5
5
5
5
5
5
5
5
5
5
5
5
5
5
5
5
5
5
5
5
5
5
5
5
5
5
5
5
5
5
5
5
5
5
5
5
5
5
5
5
5
5
5
5
5
5
5
5
5
5
5
5
5
5
5
5
5
5
5
5
5
5
5
5
5
5
5
5
5
5
5
5
5
5
5
5
5
5
5
5
5
5
5
5
5
5
5
5
5
5
5
5
5
5
5
5
5
5
5
5
5
5
5
5
5
5
5
5
5
5
5
5
5
5
5
5
5
5
5
5
5
5
5
5
5
5
5
5
5
5
5
5
5
5
5
5
5
5
5
5
5
5
5
5
5
5
5
5
5
5
5
5
5
5
5
5
5
5
5
5
5
5
5
5
5
5
5
5
5
5
5
5
5
5
5
5
5
5
5
5
5
5
5
5
5
5
5
5
5
5
5
5
5
5
5
5
5
5
5
5
5
5
5
5
5
5
5
5
5
5
5
5
5
5
5
5
5
5
5
5
5
5
5
5
5
5
5
5
5
5
5
5
5
5
5
5
5
5
5
5
5
5
5
5
5
5
5
5
5
5
5
5
5
5
5
5
5
5
5
5
5
5
5
5
5
5
5
5
5
5
5
5
5
5
5
5
5
5
5
5
5
5
5
5
5
5
5
5
5
5
5
5
5
5
5
5
5
5
5
5
5
5
5
5
5
5
5
5
5
5
5
5
5
5
5
5
5
5
5
5
5
5
5
5
5
5
5
5
5
5
5
5
5
5
5
5
5
5
5
5
5
5
5
5
5
5
5
5
5
5
5
5
5
5
5
5
5
5
5
5
5
5
5
5
5
5
5
5
5
5
5
5
5
5
5
5
5
5
5
5
5
5
5
5
5
5
5
5
5
5
5
5
5
5
5
5
5
5
5
5
5
5
5
5
5
5
5
5
5
5
5
5
5
5
5
5
5
5
5
5
5
5
5
5
5
5
5
5
5
5
5
5
5
5
5
5
5
5
5
5
5
5
5
5
5
5
5
5
5
5
5
5
5
5
5
5
5
5
5
5
5
5
5
5
5
5
5
5
5
5
5
5
5
5
5
5
5
5
5
5
5
5
5
5
5
5
5
5
5
5
5
5
5
5
5
5
5
5
5
5
5
5
5
5
5
5
5
5
5
5
5
5
5
5
5
5
5
5
5
5
5
5
5
5
5
5
5
5
5
5
5
5
5
5
5
5
5
5
5
5
5
5
5
5
5
5
5
5
5
5
5
5
5
5
5
5
5
5
5
5
5
5
5
5
5
5
5
5
5
5
5
5
5
5
5
5
5
5
5
5
5
5
5
5
5
5
5
5
5
5
5
5
5
5
5
5
5
5
5
5
5
5
5
5
5
5
5
5
5
5
5
5
5
5
5
5
5
5
5
5
5
5
5
5
5
5
5
5
5
5
5
5
5
5
5
5
5
5
5
5
5
5
5
5
5
5
5
5
5
5
5
5
5
5
5
5
5
5
5
5
5
5
5
5
5
5
5
5
5
5
5
5
5
5
5
5
5
5
5
5
5
5
5
5
5
5
5
5
5
5
5
5
5
5
5
5
5
5
5
5
5
5
5
5
5
5
5
5
5
5
5
5
5
5
5
5
5
5
5
5
5
5
5
5
5
5
5
5
5
5
5
5
5
5
5
5
5
5
5
5
5
5
5
5
5
5
5
5
5
5
5
5
5
5
5
5
5
5
5
5
5
5
5
5
5
5
5
5
5
5
5
5
5
5
5
