# vtk DataFile Version 2.0
slicer, Created by Gmsh
ASCII
DATASET UNSTRUCTURED_GRID
POINTS 898 double
5.970042442445556 188.5 -14.8444802278624
-1.68994741490559e-07 188.499999999998 -15.9999999999987
-5.97004244244574 188.5 -14.8444802278624
9.23760430703371 187.070937640368 -15.9999999999992
9.904743958533107 187.4343935918536 -14.8444802278624
9.904790786806602 159.987401093279 -14.8444802278624
-5.418300379948381e-14 157.9357759357295 -14.8444802278624
-9.904743958531679 159.989373409809 -14.8444802278624
-9.904667466376564 187.4356989453638 -14.8444802278624
-9.237604307032701 187.070937640368 -15.9999999999991
-9.237604307033671 160.49522658769 -16.0000000000007
1.87152441082e-12 158.661678315192 -15.9999999999988
9.237604307037611 160.495226587693 -16.0000000000001
11.49122671019449 188.5 -11.1333601708968
-11.49122671019465 188.5 -11.1333601708968
12.04736012241731 188.2667571273184 -11.1333601708968
12.0471932171399 158.9332954099671 -11.1333601708968
-5.509193603979534e-14 156.070694161363 -11.1333601708968
-12.04736012241589 158.9338241244375 -11.1333601708968
-12.04718722703584 188.2671830666079 -11.1333601708968
13.8564065362141 188.499999999998 -7.99999986894336
14.17428487406504 188.5 -7.422240113931204
8.118519057756112 188.5 -7.422240113931203
-5.66961769363928e-14 188.5 -11
-8.11851905775629 188.5 -7.422240113931202
-14.17428487406519 188.5 -7.422240113931201
-13.8564064603918 188.499999999998 -8.000000000271751
14.18997628630154 188.4920091960019 -7.422240113931203
14.18995173281686 158.6705063467348 -7.422240113931204
7.612768527344758 155.867789836548 -7.422240113931203
6.162187027089096 156.853125000003 -7.422240113931202
6.162187027085025 187.146875 -7.422240113931203
-5.6637370318777e-14 187.146875 -9.64687500000001
-6.162187027085145 187.146875 -7.422240113931202
-6.162187027089213 156.853125000003 -7.422240113931204
-7.612768527344905 155.867789836548 -7.422240113931202
-14.18997628630009 158.6708808656311 -7.422240113931204
-14.18997628630011 188.4920089487265 -7.422240113931203
-5.74467249858348e-14 155.86778983655 -10.632210163452
-5.78187327607302e-14 156.853125000002 -9.646875000001311
15.56366241997 188.5 -3.711120056965601
10.3550754667837 188.5 -3.711120056965601
16.33259245018575 188.0676001805381 -3.711120056965601
16.33265179482893 159.1736071244697 -3.7111200569656
9.963507458850412 155.867789836548 -3.711120056965601
8.904481185810987 156.853125000003 -3.7111200569656
8.904481185808169 187.146875 -3.7111200569656
-10.35507546678389 188.5 -3.711120056965601
-15.5636624199701 188.5 -3.711120056965602
-8.90448118580829 187.146875 -3.711120056965601
-8.904481185811107 156.853125000003 -3.7111200569656
-9.963507458850524 155.867789836548 -3.711120056965599
-16.33259245018429 159.1741192193643 -3.711120056965602
-16.33259245018432 188.0675985099017 -3.711120056965601
15.99999999999999 188.5 1.189933449960372e-15
10.9999999999999 188.5 -5.320617961719077e-15
18.4752086140681 187.070937640368 -4.15682084080973e-13
18.4752086140678 160.495226587691 -1.39664508011873e-12
10.6322101634505 155.867789836548 -1.353819181353189e-15
9.646875000002542 156.853125000003 -1.164530479998618e-14
9.646874999999939 187.146875 -5.279746304449593e-16
-11.0000000000001 188.5 -7.818274024977162e-16
-16.00000000000004 188.5 -2.141880209899401e-15
-9.64687500000006 187.146875 -6.989751288719563e-16
-18.475208614068 160.495226587691 1.38193580935176e-12
-18.4752086140683 187.070937640368 4.05022751278259e-13
-9.646875000002661 156.853125000003 4.823873130833364e-16
-10.6322101634506 155.867789836548 -6.87615068188694e-15
15.56366241997005 188.5 3.7111200569656
10.3550754667837 188.5 3.711120056965597
16.33259245018418 188.0675985099017 3.711120056965598
16.33265172194428 159.1736089068822 3.711120056965596
9.963507458850405 155.867789836548 3.711120056965599
8.904481185810976 156.853125000003 3.711120056965597
8.904481185808162 187.146875 3.711120056965596
-10.35507546678389 188.5 3.7111200569656
-15.56366241997006 188.5000000000001 3.711120056965599
-8.904481185808281 187.146875 3.711120056965599
-8.904481185811099 156.853125000003 3.711120056965597
-9.963507458850506 155.867789836548 3.711120056965597
-16.33265179482903 159.17360712447 3.711120056965598
-16.33259245018586 188.0676001827628 3.711120056965597
14.17428487406509 188.5 7.422240113931197
8.118519057756108 188.5 7.4222401139312
14.18997628629992 188.4920089487111 7.422240113931197
14.18995178731253 158.670506135956 7.422240113931198
7.612768527344728 155.867789836548 7.422240113931199
6.162187027089072 156.853125000003 7.422240113931197
6.162187027085004 187.146875 7.422240113931198
-8.118519057756286 188.5 7.422240113931198
-14.17428487406513 188.5 7.422240113931201
-6.162187027085123 187.146875 7.422240113931201
-6.162187027089195 156.853125000003 7.422240113931198
-7.612768527344831 155.867789836548 7.422240113931201
-14.18995173281694 158.6705063467349 7.422240113931198
-14.18997628630167 188.4920091995457 7.422240113931199
-5.89412885850672e-14 188.5 11
13.8564064604894 188.499999999998 8.00000000010381
11.49122671019455 188.5 11.1333601708968
-11.49122671019456 188.5 11.1333601708968
-13.856406537129 188.499999999998 7.99999986736143
-5.900009520268299e-14 187.146875 9.646874999999991
12.04736012241573 188.2667565916109 11.1333601708968
12.04719289966051 158.9332964901949 11.1333601708968
-5.89151855862487e-14 156.070694161363 11.1333601708968
-12.04719321714 158.9332954099667 11.1333601708968
-12.04736012241744 188.2667571193435 11.1333601708968
-5.78187327607298e-14 156.853125000002 9.646875000001289
-5.73847236900186e-14 155.867789836551 10.6322101634522
5.970042442445599 188.5 14.8444802278624
-5.970042442445625 188.5 14.8444802278624
9.904743958531538 187.4343944691647 14.84448022786239
9.904790824931574 159.9874006696596 14.84448022786239
-5.906315555841182e-14 157.9357759357295 14.8444802278624
-9.904790786806723 159.9874010932789 14.8444802278624
-9.904743958533242 187.4343935898808 14.8444802278624
-6.562427711915959e-08 188.499999999998 15.9999999999987
9.237604307032591 187.070937640368 15.9999999999991
-9.237604307033831 187.070937640368 15.9999999999991
9.237604307031949 160.49522658769 16.0000000000012
-2.46309739997203e-12 158.661678315192 15.999999999999
-9.23760430703885 160.495226587692 15.9999999999993
3.040420558413971 188.5 -15.70846405056755
-9.592326932761353e-14 188.5 -14.8444802278624
-3.040420724329728 188.5 -15.70846401845409
4.668623318270059 188.1147760809117 -16
9.570478952067418 187.2577724379381 -15.42344420225329
7.950390034740364 188.0153395743399 -14.8444802278624
9.904743958533118 165.4767995929939 -14.8444802278624
9.904743958533118 170.9661980927089 -14.8444802278624
9.904743958533118 176.4555965924238 -14.8444802278624
9.904743958533118 181.9449950921387 -14.8444802278624
5.057334596412586 158.4545020324856 -14.8444802278624
-5.057697444144324 158.4545772606103 -14.8444802278624
-9.904743958531682 165.4786385169199 -14.8444802278624
-9.904743958531682 170.9679036240309 -14.8444802278624
-9.904743958531682 176.4571687311418 -14.8444802278624
-9.904743958531682 181.9464338382528 -14.8444802278624
-7.950162739448148 188.0154015306269 -14.8444802278624
-4.668662648910236 188.1149118696786 -16.00006280247027
-9.570440052689749 187.2584885976887 -15.4234691165123
-4.709037591669469 159.1243328099494 -16.00001845533095
-9.237604307033692 181.755795429834 -16.00000000000062
-9.237604307033454 176.440653219298 -16.00000000000104
-9.237604307033216 171.125511008762 -16.00000000000146
-9.237604307032978 165.810368798226 -16.00000000000188
9.237604307034497 181.7557954298342 -16
9.237604307035552 176.4406532192984 -16
9.237604307036609 171.1255110087626 -16
9.237604307037664 165.8103687982268 -16
4.709037736459003 159.1243324158577 -16.00001846965923
9.569369141110165 160.2317405023018 -15.42538973988328
-5.404045222503542e-14 158.2919294887415 -15.42651042068086
-9.569308451631043 160.232458045593 -15.42547156847689
8.925641901597661 188.5 -13.27904050164931
5.745613355097219 188.5 -11.1333601708968
-4.973799150320701e-14 188.5 -11.1333601708968
-5.745613355097348 188.5 -11.1333601708968
-8.925641901597841 188.5 -13.2790405016493
10.96962390798006 187.917045180616 -13.00005405145902
11.76952628200403 188.3839337762385 -11.1333601708968
12.04736012241731 164.7999877534374 -11.1333601708968
12.04736012241731 170.6666800969077 -11.1333601708968
12.04736012241731 176.5333724403779 -11.1333601708968
12.04736012241731 182.4000647838482 -11.1333601708968
6.191265488371763 156.7962631119534 -11.1333601708968
-6.191453698722006 156.7963078387713 -11.1333601708968
-12.04736012241589 164.8004959128716 -11.1333601708968
-12.04736012241589 170.6671677013057 -11.1333601708968
-12.04736012241589 176.5338394897398 -11.1333601708968
-12.04736012241589 182.4005112781739 -11.1333601708968
-11.76937622111178 188.3839967155367 -11.1333601708968
-10.96961415422518 187.9174472069132 -12.99999301695424
10.96395332263367 159.3616048599222 -13.01009104127969
-5.462928148956566e-14 156.9367106002063 -13.02235310640457
-10.9639890390252 159.3636546514781 -13.00981393078033
12.77028269533902 188.5 -9.639495831272665
14.01832252491771 188.5 -7.712757845763299
11.14640196591057 188.5 -7.422240113931203
4.435952946692489 188.5 -10.06589893922692
-4.435952946692631 188.4999999999999 -10.06589893922692
-11.14640196591074 188.5 -7.422240113931203
-14.01832248836744 188.5 -7.712757912195497
-12.77028264965806 188.5 -9.639495891790448
12.95003888695351 188.4409008767178 -9.569874687806639
14.02320338693258 188.4980045478926 -7.711099248963784
14.18212340978671 188.4959905821779 -7.422240113931203
14.1899762863015 164.6348069165882 -7.422240113931203
14.1899762863015 170.5991074864417 -7.422240113931203
14.1899762863015 176.5634080562951 -7.422240113931203
14.1899762863015 182.5277086261485 -7.422240113931203
10.99100174541924 157.0587591945568 -7.422240113931203
6.893968958089797 156.3700218999913 -7.422240113931203
6.162187027085031 181.0881250000002 -7.422240113931203
6.162187027085031 175.0293750000005 -7.422240113931203
6.162187027085031 168.9706250000007 -7.422240113931203
6.162187027085031 162.9118750000008 -7.422240113931203
7.15165274578824 187.8070745278986 -7.422240113931203
-5.529030332957235e-14 187.8234375 -10.32343750000001
3.27572697578004 187.146875 -9.073687786438974
-3.275726975780155 187.146875 -9.073687786438974
-7.15165274578838 187.8070745278986 -7.422240113931203
-6.162187027085144 181.0881250000003 -7.422240113931203
-6.162187027085144 175.0293750000004 -7.422240113931203
-6.162187027085144 168.9706250000007 -7.422240113931203
-6.162187027085143 162.9118750000008 -7.422240113931203
-6.893968958089903 156.3700218999913 -7.422240113931203
-10.99109868089342 157.0588005065469 -7.422240113931203
-14.1899762863001 164.6351064822501 -7.422240113931203
-14.1899762863001 170.5993320988693 -7.422240113931203
-14.1899762863001 176.5635577154883 -7.422240113931203
-14.1899762863001 182.5277833321074 -7.422240113931203
-14.18212345991908 188.495990556533 -7.422240113931203
-14.02320334935347 188.4980044708054 -7.71109931405027
-12.95000333597409 188.4409388570034 -9.569879314619048
13.11561511028833 158.7059528743849 -9.282923944752367
-5.515319137188972e-14 155.9680740614755 -10.88325803847211
4.130924512011354 155.867789836548 -9.796905411192085
-4.130924512011497 155.867789836548 -9.796905411192101
-13.11574530239261 158.7070828293131 -9.282862757123601
-5.90604275877736e-14 156.3604574182775 -10.13954258172785
3.275726975782392 156.853125000003 -9.073687786440885
-5.54560078768239e-14 162.9118750000008 -9.64687500000001
-5.54560078768239e-14 168.9706250000006 -9.64687500000001
-5.54560078768239e-14 175.0293750000004 -9.64687500000001
-5.54560078768239e-14 181.0881250000002 -9.64687500000001
-3.275726975782511 156.853125000003 -9.073687786440885
14.98430768342652 188.5 -5.609859467794482
12.95936894337685 188.5 -3.711120056965601
9.421333615668155 188.5 -5.677893350731369
15.26512253288048 188.357733157445 -5.560032189289551
15.94818815982882 188.2839080727597 -3.711120056965601
16.3325924501857 164.9524057356834 -3.711120056965601
16.3325924501857 170.7312043468971 -3.711120056965601
16.3325924501857 176.5100029581107 -3.711120056965601
16.3325924501857 182.2888015693244 -3.711120056965601
13.25146504226435 157.3214802911747 -3.711120056965601
9.43492048570536 156.3614529320671 -3.711120056965601
8.904481185808168 181.0881250000002 -3.711120056965601
8.904481185808168 175.0293750000005 -3.711120056965601
8.904481185808166 168.9706250000006 -3.711120056965601
8.904481185808168 162.9118750000009 -3.711120056965601
9.631428670941895 187.8216680008935 -3.711120056965601
7.75849382688128 187.146875 -5.733059462788546
15.26679593925067 158.8255237149928 -5.556803350560084
8.981896936282775 155.867789836548 -5.689413008894179
7.758493826884624 156.853125000003 -5.733059462788396
-9.421333615668345 188.5 -5.677893350731373
-12.95936894337701 188.5 -3.711120056965601
-14.98430768342666 188.5 -5.609859467794465
-7.758493826881399 187.146875 -5.733059462788547
-9.631428670942041 187.8216680008935 -3.711120056965601
-8.90448118580829 181.0881250000002 -3.711120056965601
-8.90448118580829 175.0293750000004 -3.711120056965601
-8.90448118580829 168.9706250000006 -3.711120056965601
-8.90448118580829 162.9118750000008 -3.711120056965601
-9.434920485705513 156.3614529320672 -3.711120056965601
-13.25157241080742 157.3215360282146 -3.711120056965601
-16.3325924501843 164.9528150774718 -3.711120056965601
-16.3325924501843 170.7315109355793 -3.711120056965601
-16.3325924501843 176.5102067936867 -3.711120056965601
-16.3325924501843 182.2889026517942 -3.711120056965601
-15.94818851702701 188.2839078718973 -3.711120056965601
-15.26512266714293 188.3577345734242 -5.560031956737726
-7.758493826884742 156.853125000003 -5.733059462788394
-8.981896936282904 155.867789836548 -5.689413008894175
-15.26690640610668 158.8267538762353 -5.556942430225045
15.89054118010806 188.5 -1.8683417790354
13.49999999999994 188.5 0
10.83756974926836 188.5 -1.883369833500898
17.41085242394184 187.6293041331352 -1.843518998652208
17.23760456683787 187.7854686701797 0
18.47520861406948 181.7557954298346 -7.126265396736172e-13
18.47520861406906 176.4406532192992 -1.446415562740085e-12
18.47520861406864 171.1255110087638 -2.180204585806553e-12
18.47520861406822 165.8103687982284 -2.913993608873022e-12
14.73648430458347 157.8717418019822 0
10.13954258172777 156.3604574182774 0
9.646874999999941 181.0881250000002 0
9.646874999999941 175.0293750000005 0
9.646874999999941 168.9706250000006 0
9.646874999999941 162.9118750000008 0
10.3234374999999 187.8234375000001 0
9.459456049006441 187.146875 -1.892323577652441
17.41970077589543 159.7323643797046 -1.828354783054764
10.46369925306087 155.867789836548 -1.885441831845644
9.4594560490091 156.853125000003 -1.892323577652418
-10.83756974926856 188.5 -1.883369833500903
-13.50000000000007 188.5 0
-15.89054118010813 188.5 -1.868341779035392
-9.459456049006565 187.146875 -1.892323577652439
-10.32343750000007 187.8234375000001 0
-18.47520861406898 165.8103687982252 8.454330665236712e-13
-18.47520861406896 171.1255110087614 7.978267032277443e-13
-18.47520861406894 176.4406532192976 7.502203399318176e-13
-18.47520861406892 181.7557954298338 7.026139766358909e-13
-17.23760456683837 187.7854686701792 0
-9.646875000000062 181.0881250000002 0
-9.646875000000062 175.0293750000004 0
-9.646875000000062 168.9706250000006 0
-9.646875000000062 162.9118750000008 0
-10.1395425817279 156.3604574182774 0
-14.73648430453105 157.8717418019513 0
-17.41085247015425 187.6293040874369 -1.843518918607534
-9.459456049009221 156.853125000003 -1.892323577652417
-10.46369925306098 155.867789836548 -1.885441831845642
-17.41924202952247 159.7351477972343 -1.828987775528621
15.89054118010809 188.5 1.868341779035392
12.95936894337686 188.5 3.711120056965598
10.83756974926836 188.5 1.883369833500886
17.41085247015445 187.6293040874424 1.843518918606893
15.94818851702658 188.2839078718979 3.711120056965598
16.33259245018419 164.9524068274861 3.711120056965598
16.33259245018419 170.73120474809 3.711120056965598
16.33259245018419 176.5100026686939 3.711120056965598
16.33259245018419 182.2888005892978 3.711120056965598
13.25146546479576 157.3214805105176 3.711120056965598
9.434920485705359 156.3614529320672 3.711120056965598
8.904481185808159 181.0881250000002 3.711120056965598
8.904481185808159 175.0293750000004 3.711120056965598
8.904481185808159 168.9706250000006 3.711120056965598
8.904481185808159 162.9118750000008 3.711120056965598
9.631428670941901 187.8216680008935 3.711120056965598
9.459456049006439 187.146875 1.892323577652427
17.4197006710457 159.7323654956518 1.828354830842
10.46369925306087 155.867789836548 1.885441831845631
9.459456049009097 156.853125000003 1.892323577652405
-10.83756974926856 188.5 1.883369833500887
-12.95936894337698 188.5 3.711120056965598
-15.89054118010811 188.5 1.868341779035399
-9.45945604900656 187.146875 1.892323577652427
-9.631428670942039 187.8216680008935 3.711120056965598
-8.904481185808281 181.0881250000003 3.711120056965598
-8.90448118580828 175.0293750000004 3.711120056965597
-8.904481185808281 168.9706250000007 3.711120056965598
-8.904481185808281 162.9118750000008 3.711120056965598
-9.434920485705472 156.3614529320671 3.711120056965598
-13.25146504226447 157.3214802911749 3.711120056965598
-16.33259245018589 164.9524057361285 3.711120056965598
-16.33259245018589 170.7312043477871 3.711120056965598
-16.33259245018589 176.5100029594456 3.711120056965598
-16.33259245018589 182.2888015711042 3.711120056965598
-15.94818815935353 188.2839080730265 3.711120056965598
-17.41085242392949 187.6293041339618 1.843518998673796
-17.41970077589555 159.7323643797046 1.828354783054723
-9.459456049009216 156.853125000003 1.892323577652403
-10.46369925306097 155.867789836548 1.885441831845627
14.98430768342659 188.5 5.609859467794466
11.1464019659106 188.5 7.422240113931198
9.421333615668148 188.5 5.677893350731369
15.2651226671443 188.3577345734513 5.56003195673509
14.18212345992174 188.4959905565322 7.422240113931198
14.18997628629997 164.634806698507 7.422240113931198
14.18997628629997 170.599107261058 7.422240113931198
14.18997628629997 176.563407823609 7.422240113931199
14.18997628629997 182.52770838616 7.422240113931198
10.99100171796432 157.0587591828562 7.422240113931197
6.893968958089743 156.3700218999913 7.422240113931198
6.162187027085005 181.0881250000002 7.422240113931199
6.162187027085004 175.0293750000004 7.422240113931197
6.162187027085003 168.9706250000006 7.422240113931197
6.162187027085003 162.9118750000008 7.422240113931199
7.151652745788218 187.8070745278986 7.422240113931198
7.758493826881265 187.146875 5.733059462788543
15.26679639407035 158.8255223630662 5.556803254281007
8.981896936282761 155.867789836548 5.68941300889418
7.758493826884609 156.853125000003 5.733059462788393
-9.421333615668336 188.5 5.677893350731369
-11.14640196591071 188.5 7.422240113931198
-14.9843076834266 188.5 5.609859467794477
-7.758493826881384 187.146875 5.733059462788546
-7.15165274578836 187.8070745278986 7.422240113931198
-6.162187027085122 181.0881250000002 7.422240113931199
-6.162187027085121 175.0293750000004 7.422240113931197
-6.162187027085122 168.9706250000006 7.422240113931197
-6.162187027085121 162.9118750000008 7.422240113931199
-6.89396895808987 156.3700218999913 7.422240113931198
-10.9910017454193 157.0587591945569 7.422240113931198
-14.18997628630167 164.6348069172971 7.422240113931198
-14.18997628630167 170.5991074878592 7.422240113931199
-14.18997628630167 176.5634080584214 7.422240113931198
-14.18997628630167 182.5277086289835 7.422240113931198
-14.18212340906865 188.4959905825447 7.422240113931198
-15.26512253280684 188.3577331586174 5.560032189417369
-7.758493826884728 156.853125000003 5.733059462788392
-8.981896936282862 155.867789836548 5.68941300889418
-15.26679593925073 158.8255237149933 5.556803350560115
-4.435952946692634 188.4999999999999 10.06589893922692
4.435952946692491 188.5 10.06589893922692
14.0183224884143 188.5 7.712757912110145
12.77028264971664 188.5 9.639495891712698
5.745613355097291 188.5 11.1333601708968
3.197442310920451e-14 188.5 11.1333601708968
-5.745613355097254 188.5 11.1333601708968
-12.77028269588929 188.5 9.639495830543799
-14.018322525358 188.5 7.712757844963201
-3.275726975780147 187.146875 9.073687786438958
-5.90829474763088e-14 187.8234375 10.3234375
3.275726975780023 187.146875 9.073687786438958
14.02320334940171 188.4980044707921 7.711099313966377
12.95003882993814 188.440901167101 9.569874786557516
11.76952637842968 188.3839337357953 11.1333601708968
12.04736012241575 164.7999885104781 11.1333601708968
12.04736012241575 170.6666805307613 11.1333601708968
12.04736012241575 176.5333725510445 11.1333601708968
12.04736012241575 182.4000645713277 11.1333601708968
6.191265577777472 156.7962631313774 11.1333601708968
-6.191265488371725 156.7962631119534 11.1333601708968
-12.04736012241746 164.799987751842 11.1333601708968
-12.04736012241746 170.6666800937174 11.1333601708968
-12.04736012241746 176.5333724355927 11.1333601708968
-12.04736012241747 182.4000647774681 11.1333601708968
-11.76952628344133 188.3839337756361 11.1333601708968
-12.95003888749212 188.4409008664059 9.569874686874012
-14.0232033873868 188.4980045500529 7.711099248177288
-3.275726975782501 156.853125000003 9.073687786440868
-5.900009520268299e-14 162.9118750000008 9.646874999999991
-5.900009520268299e-14 168.9706250000006 9.646874999999991
-5.900009520268299e-14 175.0293750000004 9.646874999999991
-5.900009520268299e-14 181.0881250000002 9.646874999999991
-4.130924512011442 155.867789836548 9.796905411192034
-5.53353431066427e-14 156.3604574182775 10.13954258172779
-13.11561511028841 158.7059528743847 9.282923944752353
-5.901151570443601e-14 155.9680740614755 10.88325803847206
3.275726975782384 156.853125000003 9.073687786440868
13.11561492616175 158.7059536556378 9.282923902616272
4.130924512011336 155.867789836548 9.796905411192034
8.925641901597711 188.5 13.27904050164932
-1.4210854715202e-14 188.5 14.8444802278624
-8.925641901597743 188.5 13.27904050164929
10.96962410172615 187.917043762425 13.00005371587815
7.950389905593731 188.0153396095433 14.8444802278624
9.904743958531526 165.4767994295606 14.84448022786239
9.904743958531526 170.9661981894616 14.8444802278624
9.904743958531526 176.4555969493626 14.8444802278624
9.904743958531526 181.9449957092636 14.84448022786239
5.057334533535327 158.4545020191766 14.8444802278624
-5.057334596412642 158.4545020324858 14.8444802278624
-9.904743958533256 165.4767995925993 14.8444802278624
-9.904743958533256 170.9661980919196 14.8444802278624
-9.904743958533256 176.45559659124 14.8444802278624
-9.904743958533256 181.9449950905604 14.8444802278624
-7.950390035034119 188.0153395742602 14.8444802278624
-10.96962390802645 187.9170451756493 13.00005405137881
10.96395308113953 159.3616026387947 13.01009165462846
-5.860659429194748e-14 156.9367106002063 13.02235310640457
-10.96395332263379 159.3616048599221 13.01009104127965
3.040420598419457 188.5 15.70846404282437
-3.040420684324203 188.5 15.70846402619726
9.570478950452925 187.2577728809138 15.42344420504693
4.668622315609372 188.1147702097907 16
-4.668623445437973 188.1147760665479 16
-9.570478952071968 187.2577724369477 15.42344420224565
9.569369173480036 160.2317404015946 15.42538970262594
9.237604307033353 181.755795429834 16.00000000000098
9.237604307033074 176.440653219298 16.00000000000146
9.237604307032797 171.125511008762 16.00000000000194
9.237604307032518 165.810368798226 16.00000000000242
-5.93795931676556e-14 158.2919294887415 15.42651042068086
4.70903759166845 159.1243328099494 16.0000184553309
-9.569369141110489 160.2317405023017 15.4253897398829
-4.709037736459327 159.1243324158577 16.00001846965917
-9.237604307035618 181.7557954298342 16
-9.237604307036673 176.4406532192984 16
-9.237604307037728 171.1255110087626 16
-9.237604307038783 165.8103687982268 16
-4.79711257153198 173.699471539155 -14.8444802278624
5.199720436324148 168.3062551806147 -14.8444802278624
4.949895381295173 179.270276340047 -14.8444802278624
-2.079569883165419 162.5751122811972 -14.8444802278624
-2.868727773866536 184.3388911325078 -14.8444802278624
6.840464049436771 185.4246702031279 -14.8444802278624
5.125469970014877 173.7366888159051 -14.8444802278624
0.3822788754168135 171.0911710695356 -14.8444802278624
0.1259379232365397 176.2605363354085 -14.8444802278624
-4.552641877180769 167.5225187533931 -14.8444802278624
-5.121432664094925 179.7027886193767 -14.8444802278624
2.404874477085635 184.0452123151918 -14.8444802278624
-7.260210979833023 184.9044968341034 -14.8444802278624
5.498423486316745 163.3342271603992 -14.8444802278624
0.9542528574517271 165.9945354053527 -14.8444802278624
-6.419418633021159 162.5752571312591 -14.8444802278624
1.850056708706424 161.5508077586824 -14.8444802278624
-0.1018905312688227 180.7235409485064 -14.8444802278624
5.591976145111039 182.7256510740395 -14.8444802278624
4.70631150418 178.9926677400725 -16
4.634556127987023 168.4679399034939 -16
-4.634556127982172 173.7830821140308 -16
-2.000836291676229 184.2642875776538 -16
-1.953856383930656 162.971068957116 -16
4.63982658563789 173.7655520710947 -16
0.124775624797274 176.2536200377535 -16
-4.381273194435608 167.7832868206672 -16
-0.1140133769128537 171.1256288664288 -16
-4.371695109361888 179.6692723500096 -16
5.00752955244724 163.798806613996 -16
5.101381724396784 183.6048008838394 -16
0.6723077240058499 166.3557789457312 -16
0.7430034841309752 181.0517450122717 -16
-6.016424403899244 162.9707611811005 -16
-5.995664727724477 184.2431339751658 -16
1.660818604598742 185.1250473999749 -16
1.688552005680492 162.0248891626297 -16
2.928913949385657 188.5 -12.9889201993796
-2.928913949385809 188.5 -12.9889201993796
-6.966673317966494 173.6005035955227 -11.1333601708968
6.989564833862142 167.7721268742177 -11.1333601708968
3.080995497849959 184.2437872520643 -11.1333601708968
-1.901932235718093 161.0512432449327 -11.1333601708968
6.96665551678444 173.6000262686428 -11.1333601708968
2.102050675236676 169.9844701308274 -11.1333601708968
1.669741863127171 175.09355136014 -11.1333601708968
-7.342075731216378 167.9773096444296 -11.1333601708968
-6.510830497565847 179.7305079422739 -11.1333601708968
-2.965644731243224 184.4158340104861 -11.1333601708968
6.994746276905489 179.4180639883601 -11.1333601708968
2.262152653059668 164.8296728313474 -11.1333601708968
7.039575767550261 162.2267835244321 -11.1333601708968
9.025261415649618 185.6732300808638 -11.1333601708968
-8.939630251434949 185.7425761447255 -11.1333601708968
-6.965545299173837 162.6367572837673 -11.1333601708968
-3.008282963339489 176.3662152567383 -11.1333601708968
-2.824314957619437 171.1161818777572 -11.1333601708968
2.699751385173372 160.2293551656693 -11.1333601708968
-2.444944149238567 166.2659391688436 -11.1333601708968
-0.04490248750404004 180.1829055672823 -11.1333601708968
10.97476709673663 185.5926512062874 -12.9911457872197
10.9736145864969 161.7118165940321 -12.99314199351116
10.97605204047521 173.6554618056045 -12.9889201993796
10.97605204047522 179.3335072271971 -12.9889201993796
10.97605204047521 167.977416384012 -12.98892019937961
8.857172202734956 158.6341958916043 -13.27480029952651
2.616864266315742 157.3352601754093 -13.53621390124738
-8.857576935934507 158.6343927997939 -13.27488942239902
-10.84769943341543 185.0199328717697 -13.21123343608859
-10.9736394489507 161.7131973536418 -12.9930989304755
-10.97605204047379 173.6565198865546 -12.9889201993796
-10.97605204047379 179.3344883343271 -12.9889201993796
-10.97605204047379 167.978551438782 -12.9889201993796
10.17974913526418 188.5 -9.035326681416661
-10.17974393216029 188.5 -9.035320363741938
7.994212274784963 188.5 -9.758037048678281
-7.994208905706071 188.5 -9.758031687897308
8.567117813111608 187.1133173388316 -7.422240113931203
10.78479043937097 161.6473430159497 -7.422240113931203
8.101150620733145 158.4514856578416 -7.422240113931203
10.35199967455837 178.965696623691 -7.422240113931203
11.01402664780561 185.6477437730647 -7.422240113931203
10.27869676282312 172.9575282279907 -7.422240113931203
10.29463563816119 166.9535476078286 -7.422240113931203
-10.95535953978569 186.9885873258137 -7.422240113931203
-8.31525236320603 158.3754777647713 -7.422240113931203
-10.60577680822761 161.2888389069059 -7.422240113931203
-10.31824926816095 166.9978703992009 -7.422240113931203
-10.23608586982984 178.8842200927319 -7.422240113931203
-10.20977696079354 172.8408300510486 -7.422240113931203
-9.541159150017181 183.3271181501307 -7.422240113931203
13.47800964865479 187.0248210217109 -8.655402503629251
13.11866820435941 173.5906420200055 -9.277800142413998
13.11866820435941 179.5061384766674 -9.277800142414
13.11866820435941 167.6751455633437 -9.277800142414003
13.08631763056924 161.7496928714631 -9.333832979872577
13.01337982218855 184.7577919368002 -9.460164969780656
9.58268405089475 157.2308705623675 -9.639072061451019
11.4025316055467 157.9544166843245 -9.553496772840559
-9.582887221910164 157.230984164223 -9.639171993165615
-11.40288478817965 157.9545663497782 -9.553465216522705
-13.47797868679267 187.0248991190109 -8.655456131145081
-13.11866820435799 173.5909742513508 -9.277800142414002
-13.11866820435799 179.5064229538773 -9.277800142414003
-13.11866820435799 167.6755255488242 -9.277800142414002
-13.08628653668642 161.750416581244 -9.33388683605498
-13.01341931377202 184.7579644468618 -9.460096568349151
3.186625216341024 165.9749050099308 -9.105361991497336
3.228473481056836 160.6877625851604 -9.090608134098488
3.24323443854632 171.9973349773689 -9.085352367533797
3.275726993092059 178.0040294844187 -9.073687780189092
3.239169461798178 183.309817571398 -9.086802433385406
-3.24542153612089 166.0287119470783 -9.084571333778403
-3.235530487543812 160.6941250713126 -9.088098796216956
-3.219766745913427 177.9891808571338 -9.093695583619215
-3.232450915058463 183.3079925412637 -9.089194592886836
-3.223281547294484 171.9808480035072 -9.092450348090797
12.92514824218649 188.5 -5.776747876548409
11.27503623394973 188.5 -5.284486508034829
14.63942309341928 186.5160815559074 -3.711120056965601
11.29073884664362 186.1946394046172 -3.711120056965601
13.15837248870873 161.4076441900989 -3.711120056965601
10.602871307858 158.4538945416488 -3.711120056965601
12.98853961356382 179.3994022637176 -3.711120056965601
12.90030695973321 173.3449907864319 -3.711120056965601
12.83115503792412 183.0974099587134 -3.711120056965601
12.85240149722237 167.2784615664535 -3.711120056965601
9.095092405887133 187.7860602520859 -4.804407313905974
8.300561288564509 187.9251966978084 -6.307567556735163
15.26241618692249 161.2513698189899 -5.564719717991613
15.26205196707584 185.9467705570137 -5.565350565271135
15.2612843682436 173.6009307119361 -5.566680085448402
15.2612843682436 179.4724803024696 -5.566680085448402
15.2612843682436 167.7293811214026 -5.566680085448404
12.78162765424644 157.4852418613419 -5.859828349493341
11.27196768799173 156.6814259336376 -5.406432678341544
9.00857190253762 156.4334553803929 -4.492321544085704
7.443662651162041 156.4491195176204 -6.753671949901148
7.759213203334388 172.0000000000006 -5.732085809792587
7.760470044915536 165.9412500000007 -5.730384101226798
7.761790221661528 159.9306819611612 -5.728595798321233
7.758493782858541 178.0457857634269 -5.733059522364096
7.76179022166143 184.0693180388407 -5.728595798321364
-12.92514824218674 188.5 -5.776747876548286
-11.27505336329709 188.5 -5.284520429812292
-9.095092405888236 187.7860602520863 -4.804407313905301
-8.300561288565778 187.9251966978085 -6.307567556733855
-11.46136040257334 186.9901539281999 -3.711120056965601
-14.4648653785959 186.5420688231898 -3.711120056965601
-13.158229924102 161.4078234968233 -3.711120056965601
-10.60286544184745 158.4539337156098 -3.711120056965601
-12.77975087951067 178.8405141006223 -3.711120056965601
-12.14125524708013 183.8161065839677 -3.711120056965601
-12.72477666618901 172.9873991394025 -3.711120056965601
-12.72619231037937 166.9936747748797 -3.711120056965601
-7.759213203334491 178.0587500000003 -5.732085809792607
-7.761790221661544 184.0693180388407 -5.728595798321376
-7.76047004491566 165.9412500000007 -5.730384101226793
-7.761790221661645 159.9306819611611 -5.728595798321237
-7.760470044915655 172.0000000000005 -5.730384101226802
-9.008571902538005 156.4334553803926 -4.492321544085877
-7.443662651161729 156.4491195176212 -6.753671949900523
-12.78178829121896 157.4853385589025 -5.859896498014209
-11.27203904616198 156.681461920581 -5.406458077856202
-15.26240876998392 161.2519351366145 -5.564732564503618
-15.26205202683805 185.946805588346 -5.565350461757525
-15.2612843682422 173.6011518859059 -5.5666800854484
-15.2612843682422 179.4726126232692 -5.5666800854484
-15.2612843682422 167.7296911485426 -5.5666800854484
14.11429075228462 188.5 -2.184715120968844
12.65788183676104 188.5 -1.632993913388115
16.62245964800135 188.124525255858 -0.9631727688705403
14.97563873047954 186.7142389304804 0
11.88330458912351 186.2142243495856 0
14.1929408330686 183.5236690311576 0
16.67132037562725 185.3700218804029 0
14.13503024561378 178.6034499657207 0
14.5779716866939 162.5732753485673 0
14.13765480357897 173.1062590162135 0
14.15996561973494 167.4163190286291 0
11.56332645607635 158.7397107342298 0
10.04254904431181 187.8496790308789 -2.502611582887753
10.24637872636432 187.8089295968566 -1.133910238445659
17.48002536753932 184.8976119370902 -1.723707945832238
17.40704682827291 162.0327948212557 -1.850110483703812
17.40390053212727 173.7018428832672 -1.855560028483709
17.40390053212749 179.2488132941419 -1.85556002848334
17.51709849260959 168.4679399034951 -1.659495409615162
14.90010756400291 158.0677938172856 -2.214903251864971
12.72971327858288 156.8273638710975 -1.362862915637316
9.71465628049558 156.3105954624185 -3.07399059569476
10.04706385398729 156.4137685353045 -0.88801637001995
9.465674921768326 172.0000000000005 -1.860966292287454
9.465021960213937 165.9412500000007 -1.864284462814569
9.461848704158184 159.9108196269134 -1.880323473566179
9.465674921768318 178.0587500000003 -1.860966292287487
9.461848704158175 184.0891803730886 -1.880323473566236
-14.11429075228477 188.5 -2.184715120968836
-12.65788183676116 188.5 -1.632993913388041
-10.04254904430829 187.8496790308765 -2.502611582892891
-10.24637872636175 187.8089295968544 -1.133910238450787
-16.00000012989807 187.0709375653675 0
-13.9478299142991 185.967712008818 0
-11.89462986786485 186.7427692325735 0
-14.57797168668205 162.5732753485601 0
-14.21699691482529 179.2683753457597 0
-14.15131591511434 173.2170799128855 0
-14.16224247165574 167.4347891780723 0
-15.95210097027375 184.2630057705333 0
-11.5633264560657 158.7397107342238 0
-12.55088461121052 184.0794770596141 0
-16.62245964711485 188.1245252580377 -0.9631727188953064
-9.465021960214058 178.0587500000003 -1.864284462814563
-9.461848704158324 184.0891803730885 -1.880323473566089
-9.465021960214061 172.0000000000005 -1.864284462814557
-9.465021960214061 165.9412500000007 -1.864284462814555
-9.461848704158333 159.9108196269133 -1.880323473566051
-9.714656280493772 156.3105954624195 -3.073990595697567
-10.04706385398211 156.4137685353093 -0.8880163700246815
-14.90027238515763 158.067897556456 -2.214955105883015
-12.72979890945425 156.8274177290392 -1.363091371903228
-17.40529162457548 185.3625073859297 -1.853150585682981
-17.40696883275272 162.0335355004653 -1.850245575905123
-17.40390053212663 173.7019704893307 -1.855560028482419
-17.40390053212662 179.2488895236523 -1.855560028482437
-17.51701752403909 168.4679399034926 -1.65963565129068
14.11429069177226 188.5 2.184715071509636
12.65788173506668 188.5 1.632993769554204
16.62245964711459 188.1245252580383 0.9631727188947121
14.6394232566868 186.5160812879541 3.711120056965598
11.29073888017986 186.1946393245243 3.711120056965598
13.15837198421564 161.4076447723184 3.711120056965598
10.60287129419771 158.4538946752425 3.711120056965598
12.98853933494686 179.3994016289959 3.711120056965598
12.90030687366905 173.3449908328152 3.711120056965598
12.83115502156117 183.0974095661545 3.711120056965598
12.85240142095307 167.2784620323098 3.711120056965598
10.04254904431344 187.8496790308802 2.502611582886774
10.24637872636546 187.8089295968574 1.133910238443186
17.4052915940515 185.3624869974101 1.853150638551883
17.40704681769159 162.0327956184739 1.850110502028594
17.40390053212674 173.7018429112113 1.855560028482024
17.40390053212664 179.2488129767811 1.855560028482205
17.51709838666322 168.4679399034947 1.659495593117073
14.90010820683566 158.0677942202909 2.214903436279036
12.72971361031267 156.8273640796608 1.362863799231516
9.714656280495635 156.3105954624185 3.07399059569463
10.04706385398599 156.4137685353056 0.8880163700212694
9.465674921768313 178.0587500000003 1.860966292287482
9.461848704158175 184.0891803730885 1.880323473566215
9.465674921768317 165.9412500000007 1.860966292287474
9.461848704158184 159.9108196269135 1.880323473566174
9.465674921768322 172.0000000000005 1.860966292287449
-14.11429073949575 188.5 2.18471510288045
-12.65788177281637 188.5 1.632993822946156
-10.04254904430773 187.8496790308761 2.502611582893246
-10.24637872636136 187.8089295968541 1.133910238451617
-11.46134924298131 186.9901391223782 3.711120056965598
-14.46485416790811 186.5420398449824 3.711120056965598
-13.15815518951767 161.4076524019396 3.711120056965598
-10.60283509132622 158.4538959102892 3.711120056965598
-12.77973533330779 178.8403932840991 3.711120056965598
-12.14124892766661 183.8160623037607 3.711120056965598
-12.72476834093058 172.9872342722151 3.711120056965598
-12.72617846707276 166.9934994596786 3.711120056965598
-16.62245964797802 188.1245252558742 0.9631727687797458
-17.4800253672305 184.8976119375817 1.723707946367447
-17.40704682827359 162.032794821344 1.850110483702951
-17.40390053212768 173.7018428838224 1.855560028483332
-17.40390053212769 179.2488132949196 1.85556002848332
-17.51709849237448 168.4679399034927 1.659495410022719
-9.465021960214054 178.0587500000003 1.864284462814559
-9.461848704158323 184.0891803730886 1.880323473566063
-9.465021960214056 165.9412500000007 1.864284462814553
-9.461848704158323 159.9108196269133 1.880323473566063
-9.459455962289026 171.9941968934617 1.892324011140978
-9.714656280493708 156.3105954624196 3.07399059569766
-10.04706385398253 156.4137685353089 0.8880163700242112
-14.90010756398413 158.0677938172746 2.214903251868067
-12.72971327856822 156.8273638710925 1.362862915678546
12.89913374627429 188.5 5.899523081243554
11.32055938817406 188.5 5.29802748391867
8.56711779898443 187.1133173099416 7.422240113931198
8.315253121141239 158.3754185273004 7.422240113931198
10.60574095422777 161.288656368985 7.422240113931198
10.31823997984627 166.9977213118141 7.422240113931198
10.35199964770608 178.9656964554328 7.422240113931198
11.01402665996358 185.6477437159449 7.422240113931198
10.22909437572038 172.8543221419858 7.422240113931198
9.083291448766676 187.683207547381 4.603426159915979
15.2624162291524 161.2513700464407 5.564719644844621
15.26205199055495 185.9467702003519 5.565350524601484
15.26128436824208 173.6009306253627 5.5666800854484
15.26128436824208 179.4724798669402 5.566680085448402
15.26128436824208 167.7293813837853 5.566680085448402
12.7816276067216 157.485241814896 5.859828252122869
11.27196773240004 156.6814259472235 5.406432651509358
9.008571902535717 156.4334553803947 4.492321544085551
7.44366265116167 156.449119517621 6.753671949900724
7.75921320333439 178.0587500000003 5.732085809792561
7.761790221661407 184.0693180388407 5.728595798321376
7.75921320333439 165.9412500000007 5.732085809792561
7.761790221661516 159.9306819611612 5.72859579832123
7.760470044915534 172.0000000000005 5.730384101226779
-12.89913361055944 188.5 5.899522770620542
-11.32055936878635 188.5 5.298027439543946
-9.095092405888028 187.7860602520862 4.804407313905437
-8.300561288565532 187.9251966978085 6.307567556734133
-8.567117813243721 187.113317339129 7.422240113931198
-10.78476710006957 161.6473462984054 7.422240113931198
-8.101146730849552 158.4514862049179 7.422240113931198
-10.35199967486459 178.9656966253783 7.422240113931198
-11.01402826265849 185.6477469306201 7.422240113931198
-10.27869676292609 172.9575282290397 7.422240113931198
-10.29463174829488 166.9535481554338 7.422240113931198
-7.760470044915636 178.0587500000002 5.730384101226804
-7.761790221661527 184.0693180388408 5.728595798321377
-7.75921320333451 165.9412500000007 5.73208580979256
-7.761790221661638 159.9306819611612 5.728595798321225
-7.758493782858609 171.9870357634269 5.733059522364137
-9.008571902538604 156.433455380392 4.492321544085935
-7.44366265116181 156.4491195176209 6.753671949900701
-12.78162765425336 157.4852418613455 5.859828349493789
-11.27196768799334 156.6814259336384 5.406432678341887
-15.26241618692266 161.2513698192209 5.56471971799162
-15.26205200023568 185.9467705329886 5.5653505078369
-15.26128436824378 173.6009307133784 5.566680085448393
-15.26128436824378 179.4724803044887 5.566680085448395
-15.26128436824378 167.729381122268 5.566680085448393
-10.17974913537433 188.5 9.035326681270895
10.17974905044255 188.5 9.035326662289638
7.994212179711767 188.5 9.758037012095787
-7.994212274807079 188.5 9.758037048649129
6.966655796671061 173.6000265409029 11.1333601708968
-6.989564518283104 167.7721266409784 11.1333601708968
-3.080995495029974 184.2437877755017 11.1333601708968
1.901877852695119 161.0511012200927 11.1333601708968
-6.966655532847551 173.6000262392255 11.1333601708968
-2.102068300084364 169.9843414136019 11.1333601708968
-1.669745680958264 175.0933714080786 11.1333601708968
6.510827639513682 179.730214115684 11.1333601708968
7.342049434766182 167.9768493238213 11.1333601708968
2.965644255371161 184.4157519354153 11.1333601708968
-6.994746259985393 179.4180639641798 11.1333601708968
-2.262167083544144 164.8296236074173 11.1333601708968
-7.039521025728464 162.2268342979965 11.1333601708968
8.939651474090388 185.7423892917316 11.1333601708968
-9.025261192654776 185.6732296303041 11.1333601708968
6.965482482674794 162.6364293342753 11.1333601708968
3.008279719744648 176.3657951660936 11.1333601708968
2.824298569896913 171.1157772992662 11.1333601708968
-2.699754373504391 160.2293546258626 11.1333601708968
2.44491215940075 166.2656870330791 11.1333601708968
0.04490185730418401 180.182848333417 11.1333601708968
-3.22394897560819 165.9412500000007 9.092213716598403
-3.232952895520278 160.6836510881404 9.089016054610767
-3.212378964175765 171.9786786505613 9.096307968409286
-3.186242216291456 178.0243938102867 9.105496021895091
-3.228427519629694 183.3121523309005 9.090624456885394
-9.582684051172565 157.2308705625726 9.639072061719869
-11.40253160570787 157.9544166844222 9.553496772902347
-13.47800967468029 187.0248210101249 8.655402458552043
-13.11866820435957 173.5906420188977 9.277800142413996
-13.11866820435957 179.5061384751164 9.277800142413998
-13.11866820435957 167.6751455626789 9.277800142413996
-13.08631763102048 161.7496928712644 9.333832979091271
-13.01337982446814 184.7577919326509 9.460164965832554
3.227942363428033 165.9749805448548 9.090796739780906
3.233432228720896 160.6876942417675 9.088845542085831
3.15559003177342 172.0000000000005 9.116164150397728
3.155590031773432 178.0587500000003 9.116164150397722
3.224749189223848 183.3161871514629 9.091929934410217
13.478010087104 187.024820884097 8.655401744210248
13.11866820435786 173.5906420416182 9.277800142414002
13.11866820435786 179.5061383330353 9.277800142414002
13.11866820435786 167.6751457502011 9.277800142414003
13.08631744262149 161.7496933891075 9.333833305404944
13.01338027135981 184.7577917694724 9.460164191790511
9.582684181353024 157.2308706534533 9.639072173832787
11.40253166469648 157.9544167921883 9.55349698330865
2.928913941790639 188.5 12.98892017891679
-2.928913949385713 188.5 12.9889201993796
-5.184649621693478 168.2821109673927 14.8444802278624
-4.962751182061931 179.2674854445951 14.8444802278624
5.000208703524202 173.7376852341136 14.8444802278624
2.079437300897005 162.5749191589312 14.8444802278624
2.985021221222791 184.6223436873781 14.8444802278624
-6.840459421515543 185.4246557599092 14.8444802278624
-5.079525401429627 173.7354320501429 14.8444802278624
-0.117222281399467 171.144134685199 14.8444802278624
4.619801011086192 167.5353183350425 14.8444802278624
0.1670442923794111 176.3188158895497 14.8444802278624
5.285433818344433 179.7995780716035 14.8444802278624
-2.3581513851242 184.0876726972531 14.8444802278624
7.000067136313323 185.0527895676982 14.8444802278624
-5.498423486593022 163.3342271600883 14.8444802278624
-0.9240769873999769 165.9988721633367 14.8444802278624
6.420154804029318 162.5757336331117 14.8444802278624
0.4483054620197412 180.8216598540355 14.8444802278624
-1.850162343018965 161.5507001682445 14.8444802278624
-5.588890146856946 182.7292639599793 14.8444802278624
10.84813990259805 185.0187606888873 13.21047052108485
10.97361452606219 161.7118163965693 12.9931420981844
10.97605204047364 173.6554620551575 12.9889201993796
10.97605204047364 179.3335074452496 12.9889201993796
10.97605204047364 167.9774166650654 12.9889201993796
8.85717196137397 158.6341956540518 13.27480002725254
-8.857172202749798 158.6341958916113 13.27480029952911
-2.616864266315874 157.3352601754093 13.53621390124729
-10.97476649721155 185.5926512123891 12.99114682562785
-10.97361458649705 161.711816593634 12.99314199351114
-10.97605204047536 173.6554618031175 12.9889201993796
-10.97605204047536 179.3335072237153 12.9889201993796
-10.97605204047536 167.9774163825196 12.9889201993796
4.707498429366751 178.9927593022152 16
-4.674846713133395 168.6802215063675 16
-2.000698061304941 184.2642418072815 16
1.953856383929837 162.9710689571155 16
4.401385207641708 167.818621814608 16
-4.328315334182786 179.7041794110949 16
4.649501724294185 173.6765083506087 16
0.2392492359017648 176.371352885339 16
0.1576542247499635 171.2404880603691 16
-4.470441455402948 173.9018127021777 16
-5.000951883935018 163.8186639583149 16
5.101383394467277 183.6047979911923 16
-0.7084379453669971 166.2879340263496 16
0.7571198597951234 181.0654229497493 16
6.016424403898103 162.9707611810993 16
-5.989469553794617 184.2480948062415 16
1.660892729781352 185.1251225474575 16
-1.688552005681549 162.0248891626294 16

CELLS 2756 10198
1 0
1 1
1 2
1 3
1 4
1 5
1 6
1 7
1 8
1 9
1 10
1 11
1 12
1 13
1 14
1 15
1 16
1 17
1 18
1 19
1 20
1 21
1 22
1 23
1 24
1 25
1 26
1 27
1 28
1 29
1 30
1 31
1 32
1 33
1 34
1 35
1 36
1 37
1 38
1 39
1 40
1 41
1 42
1 43
1 44
1 45
1 46
1 47
1 48
1 49
1 50
1 51
1 52
1 53
1 54
1 55
1 56
1 57
1 58
1 59
1 60
1 61
1 62
1 63
1 64
1 65
1 66
1 67
1 68
1 69
1 70
1 71
1 72
1 73
1 74
1 75
1 76
1 77
1 78
1 79
1 80
1 81
1 82
1 83
1 84
1 85
1 86
1 87
1 88
1 89
1 90
1 91
1 92
1 93
1 94
1 95
1 96
1 97
1 98
1 99
1 100
1 101
1 102
1 103
1 104
1 105
1 106
1 107
1 108
1 109
1 110
1 111
1 112
1 113
1 114
1 115
1 116
1 117
1 118
1 119
1 120
1 121
2 0 122
2 122 1
2 0 123
2 123 2
2 1 124
2 124 2
2 1 125
2 125 3
2 3 126
2 126 4
2 0 127
2 127 4
2 5 128
2 128 129
2 129 130
2 130 131
2 131 4
2 6 132
2 132 5
2 7 133
2 133 6
2 7 134
2 134 135
2 135 136
2 136 137
2 137 8
2 2 138
2 138 8
2 1 139
2 139 9
2 9 140
2 140 8
2 10 141
2 141 11
2 9 142
2 142 143
2 143 144
2 144 145
2 145 10
2 3 146
2 146 147
2 147 148
2 148 149
2 149 12
2 11 150
2 150 12
2 12 151
2 151 5
2 6 152
2 152 11
2 10 153
2 153 7
2 13 154
2 154 0
2 13 155
2 155 156
2 156 157
2 157 14
2 2 158
2 158 14
2 4 159
2 159 15
2 13 160
2 160 15
2 16 161
2 161 162
2 162 163
2 163 164
2 164 15
2 17 165
2 165 16
2 18 166
2 166 17
2 18 167
2 167 168
2 168 169
2 169 170
2 170 19
2 14 171
2 171 19
2 8 172
2 172 19
2 5 173
2 173 16
2 17 174
2 174 6
2 7 175
2 175 18
2 20 176
2 176 13
2 21 177
2 177 20
2 21 178
2 178 22
2 23 179
2 179 22
2 24 180
2 180 23
2 24 181
2 181 25
2 26 182
2 182 25
2 14 183
2 183 26
2 15 184
2 184 20
2 20 185
2 185 27
2 21 186
2 186 27
2 28 187
2 187 188
2 188 189
2 189 190
2 190 27
2 29 191
2 191 28
2 29 192
2 192 30
2 31 193
2 193 194
2 194 195
2 195 196
2 196 30
2 22 197
2 197 31
2 32 198
2 198 23
2 32 199
2 199 31
2 33 200
2 200 32
2 24 201
2 201 33
2 33 202
2 202 203
2 203 204
2 204 205
2 205 34
2 35 206
2 206 34
2 35 207
2 207 36
2 36 208
2 208 209
2 209 210
2 210 211
2 211 37
2 25 212
2 212 37
2 37 213
2 213 26
2 19 214
2 214 26
2 16 215
2 215 28
2 38 216
2 216 17
2 29 217
2 217 38
2 38 218
2 218 35
2 18 219
2 219 36
2 38 220
2 220 39
2 39 221
2 221 30
2 39 222
2 222 223
2 223 224
2 224 225
2 225 32
2 34 226
2 226 39
2 40 227
2 227 21
2 40 228
2 228 41
2 22 229
2 229 41
2 27 230
2 230 42
2 40 231
2 231 42
2 43 232
2 232 233
2 233 234
2 234 235
2 235 42
2 44 236
2 236 43
2 44 237
2 237 45
2 46 238
2 238 239
2 239 240
2 240 241
2 241 45
2 41 242
2 242 46
2 31 243
2 243 46
2 28 244
2 244 43
2 44 245
2 245 29
2 30 246
2 246 45
2 47 247
2 247 24
2 47 248
2 248 48
2 25 249
2 249 48
2 49 250
2 250 33
2 47 251
2 251 49
2 49 252
2 252 253
2 253 254
2 254 255
2 255 50
2 51 256
2 256 50
2 51 257
2 257 52
2 52 258
2 258 259
2 259 260
2 260 261
2 261 53
2 48 262
2 262 53
2 53 263
2 263 37
2 50 264
2 264 34
2 35 265
2 265 51
2 36 266
2 266 52
2 54 267
2 267 40
2 54 268
2 268 55
2 41 269
2 269 55
2 42 270
2 270 56
2 54 271
2 271 56
2 56 272
2 272 273
2 273 274
2 274 275
2 275 57
2 58 276
2 276 57
2 58 277
2 277 59
2 60 278
2 278 279
2 279 280
2 280 281
2 281 59
2 55 282
2 282 60
2 46 283
2 283 60
2 43 284
2 284 57
2 58 285
2 285 44
2 45 286
2 286 59
2 61 287
2 287 47
2 61 288
2 288 62
2 48 289
2 289 62
2 63 290
2 290 49
2 61 291
2 291 63
2 64 292
2 292 293
2 293 294
2 294 295
2 295 65
2 62 296
2 296 65
2 63 297
2 297 298
2 298 299
2 299 300
2 300 66
2 67 301
2 301 66
2 67 302
2 302 64
2 65 303
2 303 53
2 66 304
2 304 50
2 51 305
2 305 67
2 52 306
2 306 64
2 68 307
2 307 54
2 68 308
2 308 69
2 55 309
2 309 69
2 56 310
2 310 70
2 68 311
2 311 70
2 71 312
2 312 313
2 313 314
2 314 315
2 315 70
2 72 316
2 316 71
2 72 317
2 317 73
2 74 318
2 318 319
2 319 320
2 320 321
2 321 73
2 69 322
2 322 74
2 60 323
2 323 74
2 57 324
2 324 71
2 72 325
2 325 58
2 59 326
2 326 73
2 75 327
2 327 61
2 75 328
2 328 76
2 62 329
2 329 76
2 77 330
2 330 63
2 75 331
2 331 77
2 77 332
2 332 333
2 333 334
2 334 335
2 335 78
2 79 336
2 336 78
2 79 337
2 337 80
2 80 338
2 338 339
2 339 340
2 340 341
2 341 81
2 76 342
2 342 81
2 81 343
2 343 65
2 80 344
2 344 64
2 78 345
2 345 66
2 67 346
2 346 79
2 82 347
2 347 68
2 82 348
2 348 83
2 69 349
2 349 83
2 70 350
2 350 84
2 82 351
2 351 84
2 85 352
2 352 353
2 353 354
2 354 355
2 355 84
2 86 356
2 356 85
2 86 357
2 357 87
2 88 358
2 358 359
2 359 360
2 360 361
2 361 87
2 83 362
2 362 88
2 74 363
2 363 88
2 71 364
2 364 85
2 86 365
2 365 72
2 73 366
2 366 87
2 89 367
2 367 75
2 89 368
2 368 90
2 76 369
2 369 90
2 91 370
2 370 77
2 89 371
2 371 91
2 91 372
2 372 373
2 373 374
2 374 375
2 375 92
2 93 376
2 376 92
2 93 377
2 377 94
2 94 378
2 378 379
2 379 380
2 380 381
2 381 95
2 90 382
2 382 95
2 95 383
2 383 81
2 92 384
2 384 78
2 79 385
2 385 93
2 94 386
2 386 80
2 96 387
2 387 89
2 83 388
2 388 96
2 97 389
2 389 82
2 98 390
2 390 97
2 98 391
2 391 392
2 392 393
2 393 99
2 100 394
2 394 99
2 90 395
2 395 100
2 101 396
2 396 91
2 96 397
2 397 101
2 88 398
2 398 101
2 84 399
2 399 97
2 97 400
2 400 102
2 98 401
2 401 102
2 103 402
2 402 403
2 403 404
2 404 405
2 405 102
2 103 406
2 406 104
2 104 407
2 407 105
2 105 408
2 408 409
2 409 410
2 410 411
2 411 106
2 99 412
2 412 106
2 106 413
2 413 100
2 100 414
2 414 95
2 107 415
2 415 92
2 107 416
2 416 417
2 417 418
2 418 419
2 419 101
2 93 420
2 420 108
2 107 421
2 421 108
2 105 422
2 422 94
2 108 423
2 423 104
2 87 424
2 424 107
2 85 425
2 425 103
2 108 426
2 426 86
2 109 427
2 427 98
2 109 428
2 428 110
2 99 429
2 429 110
2 102 430
2 430 111
2 109 431
2 431 111
2 112 432
2 432 433
2 433 434
2 434 435
2 435 111
2 112 436
2 436 113
2 113 437
2 437 114
2 114 438
2 438 439
2 439 440
2 440 441
2 441 115
2 110 442
2 442 115
2 115 443
2 443 106
2 103 444
2 444 112
2 104 445
2 445 113
2 114 446
2 446 105
2 116 447
2 447 109
2 110 448
2 448 116
2 111 449
2 449 117
2 117 450
2 450 116
2 116 451
2 451 118
2 118 452
2 452 115
2 112 453
2 453 119
2 117 454
2 454 455
2 455 456
2 456 457
2 457 119
2 113 458
2 458 120
2 119 459
2 459 120
2 121 460
2 460 114
2 120 461
2 461 121
2 118 462
2 462 463
2 463 464
2 464 465
2 465 121
3 123 1 124
3 123 122 1
3 0 122 123
3 2 123 124
3 122 0 125
3 125 0 127
3 1 122 125
3 126 3 125
3 125 4 126
3 125 127 4
3 127 471 4
3 470 478 476
3 476 478 137
3 2 478 470
3 2 470 123
3 473 474 466
3 134 475 135
3 136 476 137
3 466 475 473
3 135 475 466
3 474 476 466
3 466 476 136
3 475 481 469
3 471 484 131
3 469 480 475
3 134 481 475
3 477 483 468
3 8 478 138
3 468 484 477
3 5 479 132
3 128 479 5
3 472 474 473
3 472 473 467
3 129 472 467
3 468 474 472
3 468 472 130
3 131 468 130
3 129 467 128
3 130 472 129
3 135 466 136
3 475 480 473
3 6 469 133
3 477 484 471
3 468 483 474
3 467 479 128
3 467 480 479
3 7 481 134
3 480 482 479
3 473 480 467
3 131 484 468
3 133 481 7
3 132 482 6
3 476 483 470
3 470 477 123
3 469 481 133
3 474 483 476
3 470 483 477
3 6 482 469
3 479 482 132
3 469 482 480
3 0 471 127
3 137 478 8
3 123 477 0
3 0 477 471
3 138 478 2
3 4 471 131
3 139 124 1
3 2 124 139
3 138 2 139
3 8 138 139
3 8 139 140
3 9 140 139
3 489 499 492
3 492 497 489
3 494 500 488
3 486 493 490
3 3 496 125
3 488 498 494
3 150 495 12
3 146 496 3
3 12 495 149
3 142 494 143
3 490 493 491
3 487 494 491
3 491 493 487
3 143 494 487
3 487 492 144
3 147 485 146
3 486 490 148
3 144 492 145
3 147 490 485
3 487 493 492
3 490 491 485
3 492 499 145
3 143 487 144
3 148 490 147
3 149 486 148
3 142 500 494
3 493 497 492
3 1 488 139
3 141 489 11
3 494 498 491
3 485 498 496
3 495 502 497
3 495 497 486
3 149 495 486
3 485 496 146
3 498 501 496
3 145 499 10
3 486 497 493
3 9 500 142
3 491 498 485
3 125 501 1
3 10 499 141
3 11 502 150
3 139 500 9
3 488 500 139
3 141 499 489
3 497 502 489
3 150 502 495
3 496 501 125
3 1 501 488
3 489 502 11
3 488 501 498
3 5 151 128
3 131 3 126
3 131 146 3
3 4 131 126
3 128 12 149
3 128 151 12
3 129 128 149
3 129 148 130
3 129 149 148
3 130 146 131
3 130 147 146
3 130 148 147
3 132 6 150
3 5 132 151
3 150 6 152
3 150 152 11
3 12 132 150
3 151 132 12
3 6 133 141
3 6 141 152
3 133 7 153
3 141 133 10
3 133 153 10
3 11 152 141
3 153 7 134
3 140 137 8
3 9 137 140
3 142 137 9
3 10 134 145
3 10 153 134
3 145 134 135
3 144 135 136
3 145 135 144
3 142 136 137
3 142 143 136
3 143 144 136
3 157 2 158
3 155 154 0
3 0 503 155
3 157 504 2
3 123 504 156
3 156 503 123
3 123 503 0
3 2 504 123
3 13 154 155
3 157 158 14
3 155 503 156
3 156 504 157
3 127 0 159
3 154 159 0
3 154 13 160
3 154 15 159
3 160 15 154
3 127 159 4
3 521 522 511
3 511 522 510
3 170 519 19
3 15 518 164
3 507 525 515
3 515 525 511
3 513 525 514
3 14 519 157
3 155 518 13
3 521 525 513
3 520 524 512
3 515 518 507
3 514 519 513
3 508 524 520
3 17 508 166
3 169 513 170
3 505 513 169
3 509 515 511
3 509 511 510
3 162 509 506
3 163 509 162
3 509 510 506
3 162 506 161
3 168 505 169
3 164 515 163
3 163 515 509
3 157 514 156
3 156 507 155
3 167 512 168
3 168 512 505
3 156 514 507
3 16 517 165
3 161 517 16
3 510 516 506
3 167 520 512
3 506 517 161
3 516 517 506
3 157 519 514
3 507 518 155
3 164 518 515
3 513 519 170
3 166 520 18
3 18 520 167
3 508 520 166
3 510 524 516
3 17 523 508
3 505 521 513
3 505 522 521
3 522 524 510
3 512 522 505
3 165 523 17
3 508 523 516
3 516 523 517
3 514 525 507
3 517 523 165
3 516 524 508
3 511 525 521
3 512 524 522
3 13 518 160
3 171 519 14
3 160 518 15
3 19 519 171
3 138 172 2
3 172 158 2
3 19 171 158
3 19 158 172
3 172 138 8
3 171 14 158
3 130 528 129
3 131 529 130
3 129 530 128
3 131 526 164
3 161 527 128
3 162 530 129
3 130 529 163
3 163 528 130
3 129 528 162
3 164 529 131
3 128 530 161
3 159 526 4
3 5 527 173
3 4 526 131
3 128 527 5
3 164 526 15
3 161 530 162
3 162 528 163
3 163 529 164
3 15 526 159
3 16 527 161
3 173 527 16
3 174 532 17
3 132 531 165
3 165 532 132
3 6 532 174
3 173 531 5
3 5 531 132
3 132 532 6
3 165 531 16
3 16 531 173
3 17 532 165
3 166 533 133
3 7 533 175
3 133 533 7
3 175 533 18
3 6 174 133
3 17 166 133
3 17 133 174
3 18 533 166
3 135 536 136
3 136 537 137
3 134 538 135
3 8 534 172
3 134 535 167
3 170 534 137
3 135 538 168
3 169 537 136
3 136 536 169
3 168 536 135
3 137 537 170
3 167 538 134
3 175 535 7
3 7 535 134
3 137 534 8
3 167 535 18
3 168 538 167
3 169 536 168
3 170 537 169
3 18 535 175
3 19 534 170
3 172 534 19
3 181 540 183
3 176 539 178
3 183 540 14
3 13 539 176
3 179 541 155
3 157 542 180
3 24 540 181
3 178 539 22
3 539 541 22
3 24 542 540
3 155 541 13
3 13 541 539
3 540 542 14
3 22 541 179
3 180 542 24
3 179 155 156
3 180 156 157
3 14 542 157
3 178 20 176
3 178 177 20
3 178 21 177
3 179 156 23
3 180 23 156
3 181 182 25
3 181 26 182
3 181 183 26
3 13 184 160
3 13 176 184
3 176 20 184
3 160 184 15
3 20 177 185
3 177 21 185
3 185 21 186
3 185 186 27
3 543 547 178
3 30 545 196
3 544 549 196
3 187 549 544
3 187 544 28
3 191 545 29
3 192 545 30
3 31 543 197
3 196 549 195
3 195 548 194
3 195 549 548
3 196 545 544
3 194 546 193
3 194 548 546
3 28 544 191
3 190 546 189
3 189 548 188
3 188 549 187
3 546 548 189
3 548 549 188
3 546 547 193
3 197 543 22
3 190 547 546
3 544 545 191
3 178 547 21
3 21 547 186
3 22 543 178
3 186 547 27
3 27 547 190
3 29 545 192
3 193 547 31
3 31 547 543
3 197 22 179
3 23 199 179
3 23 198 199
3 179 31 197
3 199 31 179
3 199 198 32
3 201 180 24
3 200 23 180
3 198 23 200
3 200 32 198
3 180 33 200
3 201 33 180
3 205 551 34
3 211 556 550
3 33 556 202
3 181 550 24
3 553 555 209
3 204 555 553
3 36 552 208
3 207 552 36
3 206 551 35
3 35 551 207
3 205 552 551
3 208 553 209
3 34 551 206
3 203 555 204
3 551 552 207
3 202 554 203
3 554 555 203
3 204 553 205
3 210 554 211
3 209 555 210
3 210 555 554
3 205 553 552
3 554 556 211
3 552 553 208
3 202 556 554
3 24 550 201
3 25 550 181
3 212 550 25
3 201 550 33
3 550 556 33
3 211 550 37
3 37 550 212
3 25 182 213
3 212 25 213
3 213 182 26
3 37 212 213
3 214 14 171
3 214 183 14
3 214 171 19
3 26 183 214
3 557 562 15
3 16 561 215
3 20 557 184
3 187 561 161
3 164 562 190
3 188 560 162
3 163 559 189
3 189 558 163
3 162 558 188
3 190 559 164
3 161 560 187
3 161 561 16
3 162 560 161
3 163 558 162
3 164 559 163
3 187 560 188
3 188 558 189
3 189 559 190
3 190 562 557
3 15 562 164
3 184 557 15
3 185 557 20
3 27 557 185
3 190 557 27
3 28 561 187
3 215 561 28
3 29 217 165
3 165 563 29
3 16 564 563
3 191 564 215
3 29 563 191
3 563 564 191
3 215 564 16
3 165 217 17
3 217 38 216
3 16 563 165
3 217 216 17
3 28 191 215
3 218 35 166
3 35 565 166
3 565 566 18
3 219 566 207
3 207 565 35
3 207 566 565
3 18 566 219
3 17 218 166
3 166 565 18
3 38 218 216
3 216 218 17
3 219 207 36
3 19 572 567
3 219 571 18
3 214 567 26
3 167 571 208
3 211 572 170
3 168 570 209
3 210 569 169
3 169 568 210
3 209 568 168
3 170 569 211
3 208 570 167
3 18 571 167
3 170 572 19
3 208 571 36
3 167 570 168
3 168 568 169
3 169 569 170
3 209 570 208
3 210 568 209
3 211 569 210
3 567 572 211
3 19 567 214
3 26 567 213
3 36 571 219
3 37 567 211
3 213 567 37
3 192 217 29
3 30 221 217
3 30 217 192
3 221 38 217
3 220 38 221
3 221 39 220
3 32 577 199
3 221 574 39
3 199 577 31
3 30 574 221
3 225 577 32
3 39 574 222
3 31 577 193
3 196 574 30
3 195 573 196
3 195 575 573
3 194 575 195
3 193 576 194
3 224 576 225
3 223 575 224
3 573 575 223
3 222 573 223
3 194 576 575
3 575 576 224
3 193 577 576
3 576 577 225
3 573 574 196
3 222 574 573
3 200 581 32
3 39 579 226
3 33 581 200
3 226 579 34
3 32 581 225
3 222 579 39
3 202 581 33
3 34 579 205
3 203 582 580
3 580 582 224
3 205 578 204
3 203 580 202
3 204 582 203
3 224 582 223
3 223 578 222
3 225 580 224
3 578 582 204
3 223 582 578
3 580 581 202
3 205 579 578
3 225 581 580
3 578 579 222
3 226 34 218
3 206 35 218
3 218 34 206
3 38 226 218
3 38 220 226
3 226 220 39
3 229 178 22
3 178 583 21
3 40 227 228
3 227 583 228
3 228 584 41
3 21 583 227
3 229 584 178
3 178 584 583
3 41 584 229
3 583 584 228
3 21 227 186
3 186 227 27
3 27 227 230
3 227 40 230
3 230 40 231
3 230 231 42
3 242 586 41
3 40 585 231
3 587 592 241
3 232 592 587
3 232 587 43
3 238 591 586
3 41 586 228
3 236 588 44
3 46 586 242
3 237 588 45
3 231 585 42
3 585 591 235
3 228 585 40
3 241 592 240
3 240 590 239
3 240 592 590
3 239 589 238
3 239 590 589
3 43 587 236
3 589 591 238
3 235 589 234
3 234 590 233
3 233 592 232
3 589 590 234
3 590 592 233
3 241 588 587
3 228 586 585
3 587 588 236
3 586 591 585
3 235 591 589
3 42 585 235
3 45 588 241
3 44 588 237
3 238 586 46
3 229 593 41
3 197 594 22
3 243 594 197
3 593 594 243
3 229 594 593
3 242 593 46
3 22 594 229
3 46 593 243
3 31 243 197
3 41 593 242
3 233 597 234
3 234 598 235
3 232 599 233
3 232 595 187
3 42 596 230
3 190 596 235
3 233 599 188
3 189 598 234
3 234 597 189
3 188 597 233
3 235 598 190
3 187 599 232
3 244 595 43
3 187 595 28
3 235 596 42
3 43 595 232
3 188 599 187
3 189 597 188
3 190 598 189
3 27 596 190
3 230 596 27
3 28 595 244
3 44 601 236
3 28 600 191
3 244 600 28
3 236 600 244
3 191 601 245
3 236 601 600
3 245 601 44
3 600 601 191
3 245 29 191
3 43 236 244
3 246 603 245
3 245 602 246
3 29 603 192
3 45 602 237
3 245 603 29
3 192 603 30
3 246 602 45
3 30 603 246
3 237 602 44
3 44 602 245
3 45 606 246
3 31 608 243
3 243 608 46
3 246 606 30
3 240 605 241
3 239 604 240
3 194 607 193
3 238 607 239
3 195 604 194
3 196 605 195
3 238 608 193
3 196 606 241
3 193 607 238
3 241 605 196
3 195 605 240
3 240 604 195
3 194 604 239
3 239 607 194
3 30 606 196
3 193 608 31
3 241 606 45
3 46 608 238
3 247 24 181
3 25 609 181
3 248 249 48
3 248 609 249
3 47 610 248
3 249 609 25
3 181 610 247
3 609 610 181
3 247 610 47
3 248 610 609
3 47 611 247
3 24 612 201
3 201 612 250
3 250 612 611
3 611 612 247
3 49 611 251
3 247 612 24
3 33 201 250
3 250 611 49
3 251 611 47
3 49 618 252
3 262 614 48
3 255 620 615
3 615 620 258
3 52 615 258
3 51 616 257
3 47 613 251
3 251 613 49
3 50 616 256
3 53 614 262
3 254 620 255
3 248 613 47
3 48 614 248
3 253 619 254
3 261 618 614
3 619 620 254
3 252 617 253
3 614 618 613
3 617 619 253
3 257 615 52
3 260 617 261
3 259 619 260
3 258 620 259
3 260 619 617
3 259 620 619
3 615 616 255
3 257 616 615
3 252 618 617
3 248 614 613
3 617 618 261
3 255 616 50
3 261 614 53
3 613 618 49
3 256 616 51
3 249 25 212
3 249 212 37
3 263 249 37
3 53 262 263
3 48 249 263
3 262 48 263
3 264 624 50
3 49 622 250
3 250 622 33
3 34 624 264
3 255 623 254
3 254 625 253
3 253 621 252
3 202 621 203
3 204 623 205
3 203 625 204
3 202 622 252
3 255 624 205
3 205 623 255
3 253 625 203
3 254 623 204
3 204 625 254
3 252 621 202
3 203 621 253
3 33 622 202
3 205 624 34
3 252 622 49
3 50 624 255
3 265 627 264
3 264 626 265
3 206 627 35
3 256 626 50
3 34 627 206
3 264 627 34
3 35 627 265
3 50 626 264
3 265 626 51
3 51 626 256
3 257 629 51
3 207 628 36
3 36 628 266
3 266 628 257
3 265 629 207
3 628 629 257
3 51 629 265
3 207 629 628
3 35 265 207
3 266 257 52
3 260 632 259
3 261 633 260
3 259 634 258
3 261 631 211
3 208 630 258
3 209 634 259
3 260 633 210
3 210 632 260
3 259 632 209
3 211 633 261
3 258 634 208
3 52 630 266
3 263 631 53
3 211 631 37
3 258 630 52
3 53 631 261
3 208 634 209
3 209 632 210
3 210 633 211
3 36 630 208
3 266 630 36
3 37 631 263
3 267 635 268
3 269 228 41
3 269 636 228
3 55 636 269
3 268 636 55
3 228 635 40
3 635 636 268
3 40 635 267
3 228 636 635
3 268 54 267
3 54 637 267
3 270 637 271
3 267 637 270
3 271 637 54
3 40 267 231
3 42 231 267
3 267 270 42
3 270 271 56
3 59 646 281
3 282 639 55
3 277 646 59
3 54 638 271
3 643 645 281
3 278 640 639
3 281 645 280
3 276 646 58
3 55 639 268
3 280 644 279
3 280 645 644
3 275 645 643
3 275 643 57
3 60 639 282
3 640 642 272
3 272 642 273
3 268 638 54
3 279 642 278
3 57 643 276
3 272 641 640
3 273 644 274
3 278 642 640
3 274 645 275
3 638 641 271
3 644 645 274
3 279 644 642
3 642 644 273
3 271 641 56
3 643 646 276
3 639 640 638
3 268 639 638
3 640 641 638
3 281 646 643
3 56 641 272
3 58 646 277
3 278 639 60
3 41 647 269
3 55 648 282
3 283 647 46
3 269 648 55
3 60 648 283
3 282 648 60
3 283 648 647
3 647 648 269
3 242 647 41
3 46 647 242
3 233 653 232
3 275 653 274
3 56 649 270
3 274 651 273
3 273 652 272
3 275 650 232
3 235 649 272
3 232 653 275
3 234 652 273
3 273 651 234
3 233 651 274
3 272 652 235
3 274 653 233
3 284 650 57
3 232 650 43
3 272 649 56
3 57 650 275
3 234 651 233
3 235 652 234
3 42 649 235
3 270 649 42
3 43 650 284
3 236 655 285
3 276 654 284
3 285 655 58
3 43 654 236
3 284 654 43
3 654 655 236
3 276 655 654
3 58 655 276
3 285 44 236
3 276 284 57
3 59 657 277
3 286 656 285
3 285 657 286
3 44 656 237
3 285 656 44
3 286 657 59
3 237 656 45
3 45 656 286
3 277 657 58
3 58 657 285
3 278 662 238
3 241 660 281
3 281 659 241
3 240 659 280
3 280 658 240
3 238 661 278
3 239 658 279
3 279 661 239
3 238 662 46
3 281 660 59
3 239 661 238
3 240 658 239
3 241 659 240
3 278 661 279
3 279 658 280
3 280 659 281
3 45 660 241
3 286 660 45
3 46 662 283
3 59 660 286
3 60 662 278
3 283 662 60
3 288 663 289
3 287 47 248
3 248 664 287
3 287 664 61
3 61 664 288
3 48 663 248
3 288 664 663
3 289 663 48
3 663 664 248
3 62 288 289
3 287 665 47
3 291 666 61
3 49 665 290
3 61 666 287
3 290 666 63
3 63 666 291
3 665 666 290
3 287 666 665
3 47 665 251
3 251 665 49
3 288 669 61
3 300 675 66
3 66 675 301
3 62 667 288
3 295 674 65
3 63 676 297
3 65 667 296
3 300 673 670
3 299 673 300
3 65 674 667
3 668 669 288
3 67 675 302
3 298 672 299
3 672 673 299
3 670 673 292
3 64 670 292
3 667 668 288
3 297 671 298
3 671 676 674
3 671 674 295
3 671 672 298
3 302 670 64
3 294 671 295
3 293 672 294
3 292 673 293
3 294 672 671
3 293 673 672
3 291 669 63
3 667 674 668
3 302 675 670
3 61 669 291
3 296 667 62
3 674 676 668
3 297 676 671
3 670 675 300
3 669 676 63
3 301 675 67
3 668 676 669
3 289 677 62
3 296 677 303
3 303 677 289
3 62 677 296
3 289 48 262
3 262 53 289
3 303 289 53
3 65 296 303
3 252 679 297
3 300 682 255
3 255 681 300
3 297 678 252
3 253 678 298
3 298 680 253
3 254 680 299
3 299 681 254
3 255 682 50
3 297 679 63
3 252 678 253
3 253 680 254
3 254 681 255
3 298 678 297
3 299 680 298
3 300 681 299
3 49 679 252
3 290 679 49
3 50 682 304
3 63 679 290
3 66 682 300
3 304 682 66
3 301 684 66
3 305 683 304
3 304 684 305
3 256 683 51
3 304 683 50
3 51 683 305
3 66 684 304
3 305 684 67
3 50 683 256
3 67 684 301
3 305 686 257
3 306 685 302
3 67 686 305
3 257 685 52
3 52 685 306
3 257 686 685
3 685 686 302
3 306 302 64
3 302 686 67
3 51 305 257
3 258 691 259
3 293 691 292
3 294 689 293
3 295 690 294
3 295 687 261
3 258 688 292
3 292 691 258
3 294 690 260
3 260 689 294
3 293 689 259
3 261 690 295
3 303 687 65
3 259 691 293
3 64 688 306
3 261 687 53
3 292 688 64
3 65 687 295
3 259 689 260
3 260 690 261
3 52 688 258
3 306 688 52
3 53 687 303
3 268 692 307
3 308 309 69
3 308 693 309
3 309 693 55
3 55 693 268
3 68 692 308
3 268 693 692
3 307 692 68
3 692 693 308
3 307 54 268
3 307 694 54
3 271 694 310
3 310 694 307
3 54 694 271
3 56 271 310
3 307 68 311
3 307 70 310
3 311 70 307
3 322 696 69
3 68 695 311
3 697 702 321
3 312 702 697
3 312 697 71
3 318 701 696
3 69 696 308
3 316 698 72
3 74 696 322
3 317 698 73
3 311 695 70
3 695 701 315
3 308 695 68
3 321 702 320
3 320 700 319
3 320 702 700
3 319 699 318
3 319 700 699
3 71 697 316
3 699 701 318
3 315 699 314
3 314 700 313
3 313 702 312
3 699 700 314
3 700 702 313
3 321 698 697
3 308 696 695
3 697 698 316
3 696 701 695
3 315 701 699
3 70 695 315
3 73 698 321
3 72 698 317
3 318 696 74
3 309 703 69
3 282 704 55
3 74 703 323
3 55 704 309
3 323 704 60
3 60 704 282
3 703 704 323
3 309 704 703
3 69 703 322
3 322 703 74
3 312 709 313
3 274 709 275
3 273 707 274
3 272 708 273
3 272 705 315
3 312 706 275
3 275 709 312
3 273 708 314
3 314 707 273
3 274 707 313
3 315 708 272
3 310 705 56
3 313 709 274
3 57 706 324
3 56 705 272
3 275 706 57
3 315 705 70
3 313 707 314
3 314 708 315
3 70 705 310
3 71 706 312
3 324 706 71
3 325 711 316
3 324 710 276
3 58 711 325
3 316 710 71
3 71 710 324
3 316 711 710
3 710 711 276
3 324 276 57
3 276 711 58
3 72 325 316
3 277 713 59
3 325 712 326
3 326 713 325
3 317 712 72
3 325 713 58
3 59 713 326
3 72 712 325
3 326 712 73
3 58 713 277
3 73 712 317
3 318 715 278
3 281 717 321
3 320 718 280
3 319 714 279
3 280 716 320
3 321 716 281
3 279 718 319
3 278 714 318
3 278 715 60
3 321 717 73
3 279 714 278
3 280 718 279
3 281 716 280
3 318 714 319
3 319 718 320
3 320 716 321
3 59 717 281
3 326 717 59
3 60 715 323
3 73 717 326
3 74 715 318
3 323 715 74
3 329 719 288
3 75 327 328
3 327 720 328
3 61 720 327
3 288 720 61
3 328 719 76
3 719 720 288
3 76 719 329
3 328 720 719
3 329 288 62
3 75 721 327
3 61 722 291
3 330 721 77
3 327 722 61
3 63 722 330
3 291 722 63
3 330 722 721
3 721 722 327
3 331 721 75
3 77 721 331
3 77 728 332
3 342 724 76
3 335 730 725
3 725 730 338
3 80 725 338
3 79 726 337
3 75 723 331
3 331 723 77
3 78 726 336
3 81 724 342
3 334 730 335
3 328 723 75
3 76 724 328
3 333 729 334
3 341 728 724
3 729 730 334
3 332 727 333
3 724 728 723
3 727 729 333
3 337 725 80
3 340 727 341
3 339 729 340
3 338 730 339
3 340 729 727
3 339 730 729
3 725 726 335
3 337 726 725
3 332 728 727
3 328 724 723
3 727 728 341
3 335 726 78
3 341 724 81
3 723 728 77
3 336 726 79
3 62 731 329
3 343 731 296
3 329 731 343
3 296 731 62
3 343 296 65
3 76 329 342
3 81 342 329
3 343 81 329
3 339 736 338
3 292 736 293
3 65 732 343
3 293 734 294
3 294 735 295
3 292 733 338
3 341 732 295
3 338 736 292
3 340 735 294
3 294 734 340
3 339 734 293
3 295 735 341
3 293 736 339
3 344 733 64
3 64 733 292
3 295 732 65
3 338 733 80
3 340 734 339
3 341 735 340
3 80 733 344
3 81 732 341
3 343 732 81
3 297 738 332
3 335 740 300
3 333 741 298
3 298 737 333
3 300 739 335
3 332 737 297
3 334 739 299
3 299 741 334
3 300 740 66
3 332 738 77
3 297 737 298
3 298 741 299
3 299 739 300
3 333 737 332
3 334 741 333
3 335 739 334
3 63 738 297
3 330 738 63
3 66 740 345
3 77 738 330
3 78 740 335
3 345 740 78
3 66 743 301
3 345 742 346
3 346 743 345
3 79 742 336
3 345 743 66
3 346 742 79
3 301 743 67
3 67 743 346
3 336 742 78
3 78 742 345
3 337 745 346
3 302 744 344
3 346 745 67
3 80 744 337
3 344 744 80
3 744 745 337
3 302 745 744
3 67 745 302
3 302 344 64
3 346 79 337
3 83 348 349
3 82 746 348
3 347 68 308
3 308 746 347
3 69 747 308
3 348 747 349
3 347 746 82
3 746 747 348
3 349 747 69
3 308 747 746
3 70 311 350
3 347 82 351
3 350 347 84
3 347 351 84
3 311 68 350
3 68 347 350
3 748 753 348
3 87 749 361
3 353 754 751
3 751 754 360
3 352 750 85
3 88 748 362
3 85 750 356
3 86 749 357
3 356 749 86
3 749 750 361
3 353 751 352
3 357 749 87
3 360 754 359
3 356 750 749
3 359 752 358
3 359 754 752
3 361 751 360
3 355 752 354
3 354 754 353
3 752 754 354
3 750 751 361
3 752 753 358
3 362 748 83
3 352 751 750
3 355 753 752
3 348 753 82
3 82 753 351
3 83 748 348
3 351 753 84
3 84 753 355
3 358 753 88
3 88 753 748
3 69 755 349
3 349 755 363
3 74 755 322
3 363 755 74
3 322 755 69
3 363 83 349
3 362 83 363
3 363 88 362
3 314 758 313
3 315 759 314
3 313 760 312
3 315 757 355
3 352 756 312
3 353 760 313
3 314 759 354
3 354 758 314
3 313 758 353
3 355 759 315
3 312 760 352
3 71 756 364
3 350 757 70
3 70 757 315
3 312 756 71
3 355 757 84
3 352 760 353
3 353 758 354
3 354 759 355
3 84 757 350
3 85 756 352
3 364 756 85
3 316 762 72
3 356 761 85
3 85 761 364
3 364 761 316
3 365 762 356
3 761 762 316
3 72 762 365
3 356 762 761
3 364 316 71
3 86 365 356
3 365 764 366
3 366 763 365
3 357 764 86
3 317 763 73
3 365 763 72
3 73 763 366
3 86 764 365
3 87 764 357
3 366 764 87
3 72 763 317
3 366 768 73
3 74 766 363
3 363 766 88
3 87 768 366
3 320 769 319
3 319 765 318
3 321 767 320
3 358 765 359
3 360 767 361
3 359 769 360
3 358 766 318
3 321 768 361
3 360 769 320
3 319 769 359
3 359 765 319
3 320 767 360
3 318 765 358
3 361 767 321
3 73 768 321
3 318 766 74
3 361 768 87
3 88 766 358
3 368 89 367
3 368 770 90
3 369 328 76
3 369 770 328
3 328 771 75
3 367 771 368
3 90 770 369
3 368 771 770
3 75 771 367
3 770 771 328
3 367 772 75
3 371 773 89
3 370 773 371
3 772 773 370
3 367 773 772
3 331 772 77
3 77 772 370
3 89 773 367
3 75 772 331
3 370 371 91
3 368 778 774
3 375 776 92
3 375 780 775
3 775 780 378
3 94 775 378
3 93 776 377
3 92 776 376
3 371 774 91
3 374 780 375
3 373 779 374
3 779 780 374
3 775 776 375
3 372 777 373
3 777 779 373
3 377 775 94
3 380 777 381
3 379 779 380
3 378 780 379
3 380 779 777
3 379 780 779
3 372 778 777
3 89 774 371
3 777 778 381
3 377 776 775
3 368 774 89
3 90 778 368
3 382 778 90
3 91 778 372
3 774 778 91
3 376 776 93
3 381 778 95
3 95 778 382
3 90 369 382
3 382 369 95
3 95 369 383
3 383 76 342
3 369 76 383
3 383 342 81
3 78 784 384
3 370 782 77
3 91 782 370
3 384 784 92
3 332 781 333
3 334 783 335
3 374 785 373
3 333 785 334
3 375 783 374
3 373 781 372
3 332 782 372
3 375 784 335
3 373 785 333
3 372 781 332
3 333 781 373
3 335 783 375
3 374 783 334
3 334 785 374
3 77 782 332
3 335 784 78
3 372 782 91
3 92 784 375
3 384 787 385
3 385 786 384
3 93 787 376
3 78 786 336
3 384 786 78
3 376 787 92
3 385 787 93
3 336 786 79
3 79 786 385
3 92 787 384
3 79 789 337
3 94 788 377
3 386 788 94
3 337 788 386
3 377 789 385
3 337 789 788
3 385 789 79
3 788 789 377
3 80 337 386
3 385 93 377
3 339 792 340
3 340 793 341
3 338 794 339
3 386 790 80
3 81 791 383
3 381 791 341
3 338 790 378
3 339 794 379
3 380 793 340
3 340 792 380
3 379 792 339
3 341 793 381
3 378 794 338
3 80 790 338
3 341 791 81
3 378 790 94
3 379 794 378
3 380 792 379
3 381 793 380
3 94 790 386
3 95 791 381
3 383 791 95
3 394 795 368
3 348 796 390
3 390 796 98
3 99 795 394
3 391 797 388
3 387 798 393
3 368 795 89
3 83 796 348
3 795 798 89
3 83 797 796
3 389 82 348
3 388 797 83
3 89 798 387
3 395 368 90
3 796 797 98
3 393 798 99
3 99 798 795
3 392 387 393
3 392 391 388
3 392 96 387
3 392 388 96
3 97 389 348
3 390 97 348
3 98 797 391
3 394 368 100
3 100 368 395
3 371 89 387
3 387 91 371
3 396 91 387
3 96 396 387
3 96 397 396
3 396 397 101
3 362 388 83
3 88 388 362
3 88 398 388
3 398 96 388
3 397 96 398
3 398 101 397
3 351 82 399
3 82 389 399
3 84 351 399
3 399 389 97
3 97 390 400
3 400 390 98
3 400 98 401
3 400 401 102
3 805 816 815
3 804 816 805
3 102 812 405
3 411 813 106
3 809 819 801
3 805 819 809
3 808 819 806
3 391 812 98
3 99 813 393
3 806 819 815
3 807 818 814
3 801 813 809
3 806 812 808
3 814 818 802
3 406 802 104
3 405 806 404
3 404 806 799
3 805 809 803
3 804 805 803
3 800 803 409
3 409 803 410
3 800 804 803
3 408 800 409
3 404 799 403
3 410 809 411
3 803 809 410
3 392 808 391
3 393 801 392
3 403 807 402
3 799 807 403
3 801 808 392
3 407 811 105
3 105 811 408
3 800 810 804
3 807 814 402
3 408 811 800
3 800 811 810
3 808 812 391
3 393 813 801
3 809 813 411
3 405 812 806
3 103 814 406
3 402 814 103
3 406 814 802
3 810 818 804
3 802 817 104
3 806 815 799
3 815 816 799
3 804 818 816
3 799 816 807
3 104 817 407
3 810 817 802
3 811 817 810
3 801 819 808
3 407 817 811
3 802 818 810
3 815 819 805
3 816 818 807
3 98 812 401
3 412 813 99
3 401 812 102
3 106 813 412
3 99 394 413
3 99 413 412
3 394 100 413
3 412 413 106
3 414 90 382
3 395 90 414
3 414 382 95
3 100 395 414
3 101 824 396
3 415 821 107
3 396 824 91
3 92 821 415
3 419 824 101
3 107 821 416
3 91 824 372
3 375 821 92
3 373 823 822
3 822 823 418
3 372 823 373
3 374 820 375
3 417 822 418
3 373 822 374
3 416 820 417
3 418 823 419
3 374 822 820
3 820 822 417
3 372 824 823
3 820 821 375
3 416 821 820
3 823 824 419
3 92 415 420
3 376 420 93
3 92 420 376
3 415 107 421
3 415 108 420
3 421 108 415
3 93 420 407
3 407 825 93
3 105 826 825
3 377 826 422
3 93 825 377
3 825 826 377
3 422 826 105
3 407 420 104
3 420 108 423
3 94 377 422
3 420 423 104
3 105 825 407
3 827 832 106
3 105 831 422
3 100 827 413
3 378 831 408
3 411 832 381
3 379 830 409
3 410 829 380
3 380 828 410
3 409 828 379
3 381 829 411
3 408 830 378
3 408 831 105
3 378 830 379
3 379 828 380
3 380 829 381
3 381 832 827
3 409 830 408
3 410 828 409
3 411 829 410
3 94 831 378
3 422 831 94
3 381 827 95
3 95 827 414
3 414 827 100
3 106 832 411
3 413 827 106
3 398 837 101
3 107 834 424
3 88 837 398
3 424 834 87
3 101 837 419
3 416 834 107
3 358 837 88
3 87 834 361
3 835 836 359
3 359 836 358
3 360 835 359
3 833 835 360
3 361 833 360
3 417 833 416
3 417 835 833
3 418 836 835
3 418 835 417
3 419 836 418
3 836 837 358
3 361 834 833
3 833 834 416
3 419 837 836
3 102 843 838
3 425 842 103
3 400 838 97
3 402 842 352
3 355 843 405
3 403 841 353
3 354 840 404
3 404 839 354
3 353 839 403
3 405 840 355
3 352 841 402
3 352 842 85
3 405 843 102
3 103 842 402
3 353 841 352
3 354 839 353
3 355 840 354
3 838 843 355
3 402 841 403
3 403 839 404
3 404 840 405
3 84 838 355
3 399 838 84
3 85 842 425
3 97 838 399
3 102 838 400
3 426 86 406
3 86 844 406
3 844 845 103
3 425 845 356
3 356 844 86
3 356 845 844
3 103 845 425
3 406 844 103
3 104 426 406
3 425 356 85
3 423 426 104
3 423 108 426
3 357 86 426
3 424 87 426
3 426 87 357
3 424 421 107
3 424 108 421
3 426 108 424
3 110 393 429
3 109 427 391
3 110 847 393
3 391 846 109
3 392 847 428
3 428 846 392
3 427 98 391
3 429 393 99
3 109 846 428
3 428 847 110
3 392 846 391
3 393 847 392
3 102 401 427
3 427 430 102
3 427 109 430
3 431 430 109
3 401 98 427
3 430 431 111
3 115 853 442
3 858 860 852
3 852 860 109
3 856 862 851
3 428 852 109
3 855 856 850
3 855 862 856
3 851 863 856
3 435 860 858
3 850 857 855
3 854 857 849
3 855 857 854
3 849 864 859
3 857 864 849
3 441 866 853
3 431 860 111
3 437 861 114
3 114 861 438
3 850 858 857
3 438 848 439
3 433 856 432
3 848 855 854
3 434 850 433
3 435 858 434
3 850 856 433
3 439 854 440
3 848 854 439
3 434 858 850
3 859 866 849
3 440 849 441
3 440 854 849
3 436 851 113
3 856 863 432
3 853 866 859
3 438 861 848
3 861 862 848
3 432 863 112
3 861 865 862
3 848 862 855
3 849 866 441
3 852 864 858
3 112 863 436
3 113 865 437
3 436 863 851
3 428 859 852
3 858 864 857
3 851 865 113
3 437 865 861
3 862 865 851
3 859 864 852
3 442 853 110
3 111 860 435
3 109 860 431
3 110 859 428
3 853 859 110
3 441 853 115
3 429 99 412
3 412 106 429
3 443 429 106
3 110 429 443
3 442 110 443
3 442 443 115
3 433 869 434
3 434 870 435
3 432 871 433
3 111 867 430
3 432 868 402
3 405 867 435
3 433 871 403
3 404 870 434
3 434 869 404
3 403 869 433
3 435 870 405
3 402 871 432
3 444 868 112
3 402 868 103
3 435 867 111
3 112 868 432
3 403 871 402
3 404 869 403
3 405 870 404
3 102 867 405
3 430 867 102
3 103 868 444
3 406 872 436
3 112 872 444
3 444 872 103
3 436 872 112
3 103 872 406
3 104 406 436
3 445 104 436
3 445 436 113
3 445 874 104
3 437 873 407
3 407 874 437
3 113 874 445
3 446 873 114
3 104 874 407
3 407 873 105
3 105 873 446
3 437 874 113
3 114 873 437
3 440 877 439
3 441 878 440
3 439 879 438
3 441 875 411
3 408 876 438
3 409 879 439
3 440 878 410
3 410 877 440
3 439 877 409
3 411 878 441
3 438 879 408
3 443 875 115
3 114 876 446
3 411 875 106
3 438 876 114
3 115 875 441
3 408 879 409
3 409 877 410
3 410 878 411
3 105 876 408
3 446 876 105
3 106 875 443
3 116 428 448
3 116 447 428
3 447 109 428
3 448 428 110
3 431 109 450
3 109 447 450
3 450 447 116
3 111 431 450
3 111 450 449
3 117 449 450
3 451 110 442
3 448 110 451
3 116 448 451
3 451 442 115
3 451 115 452
3 452 118 451
3 449 435 111
3 453 112 432
3 117 435 449
3 454 435 117
3 119 453 432
3 119 432 457
3 457 432 433
3 456 433 434
3 457 433 456
3 454 434 435
3 454 455 434
3 456 434 455
3 113 436 459
3 436 112 453
3 113 459 458
3 436 453 119
3 459 436 119
3 458 459 120
3 437 113 461
3 461 113 458
3 114 437 460
3 461 458 120
3 460 437 121
3 121 437 461
3 114 460 438
3 115 441 452
3 441 118 452
3 441 462 118
3 438 460 121
3 438 121 465
3 439 438 465
3 439 464 440
3 439 465 464
3 440 462 441
3 440 463 462
3 440 464 463
3 883 894 884
3 884 892 883
3 882 895 885
3 885 893 882
3 464 889 463
3 450 891 117
3 461 890 121
3 117 891 454
3 881 889 464
3 463 889 885
3 121 890 465
3 885 889 887
3 888 889 881
3 456 886 884
3 886 888 884
3 880 886 455
3 454 880 455
3 463 885 462
3 880 887 886
3 887 893 885
3 456 884 457
3 455 886 456
3 465 881 464
3 884 894 457
3 887 888 886
3 887 889 888
3 451 882 116
3 459 883 120
3 885 895 462
3 888 892 884
3 890 897 892
3 890 892 881
3 891 893 880
3 881 892 888
3 465 890 881
3 454 891 880
3 891 896 893
3 457 894 119
3 462 895 118
3 880 893 887
3 116 896 450
3 119 894 459
3 120 897 461
3 118 895 451
3 451 895 882
3 892 897 883
3 459 894 883
3 461 897 890
3 450 896 891
3 882 896 116
3 883 897 120
3 893 896 882

CELL_TYPES 2756
1
1
1
1
1
1
1
1
1
1
1
1
1
1
1
1
1
1
1
1
1
1
1
1
1
1
1
1
1
1
1
1
1
1
1
1
1
1
1
1
1
1
1
1
1
1
1
1
1
1
1
1
1
1
1
1
1
1
1
1
1
1
1
1
1
1
1
1
1
1
1
1
1
1
1
1
1
1
1
1
1
1
1
1
1
1
1
1
1
1
1
1
1
1
1
1
1
1
1
1
1
1
1
1
1
1
1
1
1
1
1
1
1
1
1
1
1
1
1
1
1
1
3
3
3
3
3
3
3
3
3
3
3
3
3
3
3
3
3
3
3
3
3
3
3
3
3
3
3
3
3
3
3
3
3
3
3
3
3
3
3
3
3
3
3
3
3
3
3
3
3
3
3
3
3
3
3
3
3
3
3
3
3
3
3
3
3
3
3
3
3
3
3
3
3
3
3
3
3
3
3
3
3
3
3
3
3
3
3
3
3
3
3
3
3
3
3
3
3
3
3
3
3
3
3
3
3
3
3
3
3
3
3
3
3
3
3
3
3
3
3
3
3
3
3
3
3
3
3
3
3
3
3
3
3
3
3
3
3
3
3
3
3
3
3
3
3
3
3
3
3
3
3
3
3
3
3
3
3
3
3
3
3
3
3
3
3
3
3
3
3
3
3
3
3
3
3
3
3
3
3
3
3
3
3
3
3
3
3
3
3
3
3
3
3
3
3
3
3
3
3
3
3
3
3
3
3
3
3
3
3
3
3
3
3
3
3
3
3
3
3
3
3
3
3
3
3
3
3
3
3
3
3
3
3
3
3
3
3
3
3
3
3
3
3
3
3
3
3
3
3
3
3
3
3
3
3
3
3
3
3
3
3
3
3
3
3
3
3
3
3
3
3
3
3
3
3
3
3
3
3
3
3
3
3
3
3
3
3
3
3
3
3
3
3
3
3
3
3
3
3
3
3
3
3
3
3
3
3
3
3
3
3
3
3
3
3
3
3
3
3
3
3
3
3
3
3
3
3
3
3
3
3
3
3
3
3
3
3
3
3
3
3
3
3
3
3
3
3
3
3
3
3
3
3
3
3
3
3
3
3
3
3
3
3
3
3
3
3
3
3
3
3
3
3
3
3
3
3
3
3
3
3
3
3
3
3
3
3
3
3
3
3
3
3
3
3
3
3
3
3
3
3
3
3
3
3
3
3
3
3
3
3
3
3
3
3
3
3
3
3
3
3
3
3
3
3
3
3
3
3
3
3
3
3
3
3
3
3
3
3
3
3
3
3
3
3
3
3
3
3
3
3
3
3
3
3
3
3
3
3
3
3
3
3
3
3
3
3
3
3
3
3
3
3
3
3
3
3
3
3
3
3
3
3
3
3
3
3
3
3
3
3
3
3
3
3
3
3
3
3
3
3
3
3
3
3
3
3
3
3
3
3
3
3
3
3
3
3
3
3
3
3
3
3
3
3
3
3
3
3
3
3
3
3
3
3
3
3
3
3
3
3
3
3
3
3
3
3
3
3
3
3
3
3
3
3
3
3
3
3
3
3
3
3
3
3
3
3
3
3
3
3
3
3
3
3
3
3
3
3
3
3
3
5
5
5
5
5
5
5
5
5
5
5
5
5
5
5
5
5
5
5
5
5
5
5
5
5
5
5
5
5
5
5
5
5
5
5
5
5
5
5
5
5
5
5
5
5
5
5
5
5
5
5
5
5
5
5
5
5
5
5
5
5
5
5
5
5
5
5
5
5
5
5
5
5
5
5
5
5
5
5
5
5
5
5
5
5
5
5
5
5
5
5
5
5
5
5
5
5
5
5
5
5
5
5
5
5
5
5
5
5
5
5
5
5
5
5
5
5
5
5
5
5
5
5
5
5
5
5
5
5
5
5
5
5
5
5
5
5
5
5
5
5
5
5
5
5
5
5
5
5
5
5
5
5
5
5
5
5
5
5
5
5
5
5
5
5
5
5
5
5
5
5
5
5
5
5
5
5
5
5
5
5
5
5
5
5
5
5
5
5
5
5
5
5
5
5
5
5
5
5
5
5
5
5
5
5
5
5
5
5
5
5
5
5
5
5
5
5
5
5
5
5
5
5
5
5
5
5
5
5
5
5
5
5
5
5
5
5
5
5
5
5
5
5
5
5
5
5
5
5
5
5
5
5
5
5
5
5
5
5
5
5
5
5
5
5
5
5
5
5
5
5
5
5
5
5
5
5
5
5
5
5
5
5
5
5
5
5
5
5
5
5
5
5
5
5
5
5
5
5
5
5
5
5
5
5
5
5
5
5
5
5
5
5
5
5
5
5
5
5
5
5
5
5
5
5
5
5
5
5
5
5
5
5
5
5
5
5
5
5
5
5
5
5
5
5
5
5
5
5
5
5
5
5
5
5
5
5
5
5
5
5
5
5
5
5
5
5
5
5
5
5
5
5
5
5
5
5
5
5
5
5
5
5
5
5
5
5
5
5
5
5
5
5
5
5
5
5
5
5
5
5
5
5
5
5
5
5
5
5
5
5
5
5
5
5
5
5
5
5
5
5
5
5
5
5
5
5
5
5
5
5
5
5
5
5
5
5
5
5
5
5
5
5
5
5
5
5
5
5
5
5
5
5
5
5
5
5
5
5
5
5
5
5
5
5
5
5
5
5
5
5
5
5
5
5
5
5
5
5
5
5
5
5
5
5
5
5
5
5
5
5
5
5
5
5
5
5
5
5
5
5
5
5
5
5
5
5
5
5
5
5
5
5
5
5
5
5
5
5
5
5
5
5
5
5
5
5
5
5
5
5
5
5
5
5
5
5
5
5
5
5
5
5
5
5
5
5
5
5
5
5
5
5
5
5
5
5
5
5
5
5
5
5
5
5
5
5
5
5
5
5
5
5
5
5
5
5
5
5
5
5
5
5
5
5
5
5
5
5
5
5
5
5
5
5
5
5
5
5
5
5
5
5
5
5
5
5
5
5
5
5
5
5
5
5
5
5
5
5
5
5
5
5
5
5
5
5
5
5
5
5
5
5
5
5
5
5
5
5
5
5
5
5
5
5
5
5
5
5
5
5
5
5
5
5
5
5
5
5
5
5
5
5
5
5
5
5
5
5
5
5
5
5
5
5
5
5
5
5
5
5
5
5
5
5
5
5
5
5
5
5
5
5
5
5
5
5
5
5
5
5
5
5
5
5
5
5
5
5
5
5
5
5
5
5
5
5
5
5
5
5
5
5
5
5
5
5
5
5
5
5
5
5
5
5
5
5
5
5
5
5
5
5
5
5
5
5
5
5
5
5
5
5
5
5
5
5
5
5
5
5
5
5
5
5
5
5
5
5
5
5
5
5
5
5
5
5
5
5
5
5
5
5
5
5
5
5
5
5
5
5
5
5
5
5
5
5
5
5
5
5
5
5
5
5
5
5
5
5
5
5
5
5
5
5
5
5
5
5
5
5
5
5
5
5
5
5
5
5
5
5
5
5
5
5
5
5
5
5
5
5
5
5
5
5
5
5
5
5
5
5
5
5
5
5
5
5
5
5
5
5
5
5
5
5
5
5
5
5
5
5
5
5
5
5
5
5
5
5
5
5
5
5
5
5
5
5
5
5
5
5
5
5
5
5
5
5
5
5
5
5
5
5
5
5
5
5
5
5
5
5
5
5
5
5
5
5
5
5
5
5
5
5
5
5
5
5
5
5
5
5
5
5
5
5
5
5
5
5
5
5
5
5
5
5
5
5
5
5
5
5
5
5
5
5
5
5
5
5
5
5
5
5
5
5
5
5
5
5
5
5
5
5
5
5
5
5
5
5
5
5
5
5
5
5
5
5
5
5
5
5
5
5
5
5
5
5
5
5
5
5
5
5
5
5
5
5
5
5
5
5
5
5
5
5
5
5
5
5
5
5
5
5
5
5
5
5
5
5
5
5
5
5
5
5
5
5
5
5
5
5
5
5
5
5
5
5
5
5
5
5
5
5
5
5
5
5
5
5
5
5
5
5
5
5
5
5
5
5
5
5
5
5
5
5
5
5
5
5
5
5
5
5
5
5
5
5
5
5
5
5
5
5
5
5
5
5
5
5
5
5
5
5
5
5
5
5
5
5
5
5
5
5
5
5
5
5
5
5
5
5
5
5
5
5
5
5
5
5
5
5
5
5
5
5
5
5
5
5
5
5
5
5
5
5
5
5
5
5
5
5
5
5
5
5
5
5
5
5
5
5
5
5
5
5
5
5
5
5
5
5
5
5
5
5
5
5
5
5
5
5
5
5
5
5
5
5
5
5
5
5
5
5
5
5
5
5
5
5
5
5
5
5
5
5
5
5
5
5
5
5
5
5
5
5
5
5
5
5
5
5
5
5
5
5
5
5
5
5
5
5
5
5
5
5
5
5
5
5
5
5
5
5
5
5
5
5
5
5
5
5
5
5
5
5
5
5
5
5
5
5
5
5
5
5
5
5
5
5
5
5
5
5
5
5
5
5
5
5
5
5
5
5
5
5
5
5
5
5
5
5
5
5
5
5
5
5
5
5
5
5
5
5
5
5
5
5
5
5
5
5
5
5
5
5
5
5
5
5
5
5
5
5
5
5
5
5
5
5
5
5
5
5
5
5
5
5
5
5
5
5
5
5
5
5
5
5
5
5
5
5
5
5
5
5
5
5
5
5
5
5
5
5
5
5
5
5
5
5
5
5
5
5
5
5
5
5
5
5
5
5
5
5
5
5
5
5
5
5
5
5
5
5
5
5
5
5
5
5
5
5
5
5
5
5
5
5
5
5
5
5
5
5
5
5
5
5
5
5
5
5
5
5
5
5
5
5
5
5
5
5
5
5
5
5
5
5
5
5
5
5
5
5
5
5
5
5
5
5
5
5
5
5
5
5
5
5
5
5
5
5
5
5
5
5
5
5
5
5
5
5
5
5
5
5
5
5
5
5
5
5
5
5
5
5
5
5
5
5
5
5
5
5
5
5
5
5
5
5
5
5
5
5
5
5
5
5
5
5
5
5
5
5
5
5
5
5
5
5
5
5
5
5
5
5
5
5
5
5
5
5
5
5
5
5
5
5
5
5
5
5
5
5
5
5
5
5
5
5
5
5
5
5
5
5
5
5
5
5
5
5
5
5
5
5
5
5
5
5
5
5
5
5
5
5
5
5
5
5
5
5
5
5
5
5
5
5
5
5
5
5
5
5
5
5
5
5
5
5
5
5
5
5
5
5
5
5
5
5
5
5
5
5
5
5
5
5
5
5
5
5
5
5
5
5
5
5
5
5
5
5
5
5
5
5
5
5
5
5
5
5
5
5
5
5
5
5
5
5
5
5
5
5
5
5
5
5
5
5
5
5
5
5
5
5
5
5
5
5
5
5
5
5
5
5
5
5
5
5
5
5
5
5
5
5
5
5
5
5
5
5
5
5
5
5
5
5
5
5
5
5
5
5
5
5
5
5
5
5
5
5
5
5
5
5
5
5
5
5
5
5
5
5
5
5
5
5
5
5
5
5
5
5
5
5
5
5
5
5
5
5
5
5
5
5
5
5
5
5
5
5
5
5
5
5
5
5
5
5
5
5
5
5
5
5
5
5
5
5
5
5
5
5
5
5
5
5
5
5
5
5
5
5
5
5
5
5
5
5
5
5
5
5
5
5
5
5
5
5
5
5
5
5
5
5
5
5
5
5
5
5
5
5
5
5
5
5
5
5
5
5
5
5
5
5
5
5
5
5
5
5
5
5
5
5
5
5
5
5
5
5
5
5
5
5
5
5
5
5
5
5
5
5
5
5
5
5
5
5
5
5
5
5
5
5
5
5
5
5
5
5
5
5
5
5
5
5
5
5
5
5
5
5
5
5
5
5
5
5
5
5
5
5
5
5
5
5
5
5
5
5
5
5
5
5
5
5
5
5
5
5
5
5
5
5
5
5
5
5
5
5
5
5
5
5
5
5
5
5
5
5
5
5
5
5
5
5
5
5
5
5
5
5
5
5
5
5
5
5
5
5
5
5
5
5
5
5
5
5
5
5
5
5
5
5
5
5
5
5
5
5
5
5
5
5
5
5
5
5
5
5
5
5
5
5
5
5
5
5
5
5
5
5
5
5
5
5
5
5
5
5
5
5
5
5
5
5
5
5
5
5
5
5
5
5
5
5
5
5
5
5
5
5
5
5
5
5
5
5
5
5
5
5
5
5
5
5
5
5
5
5
5
5
5
5
5
5
5
5
5
5
5
